EESchema Schematic File Version 2
LIBS:power
LIBS:device
LIBS:transistors
LIBS:conn
LIBS:linear
LIBS:regul
LIBS:74xx
LIBS:cmos4000
LIBS:adc-dac
LIBS:memory
LIBS:xilinx
LIBS:microcontrollers
LIBS:dsp
LIBS:microchip
LIBS:analog_switches
LIBS:motorola
LIBS:texas
LIBS:intel
LIBS:audio
LIBS:interface
LIBS:digital-audio
LIBS:philips
LIBS:display
LIBS:cypress
LIBS:siliconi
LIBS:opto
LIBS:atmel
LIBS:contrib
LIBS:valves
LIBS:JP8-4ALL-cache
EELAYER 25 0
EELAYER END
$Descr A4 11693 8268
encoding utf-8
Sheet 26 411
Title ""
Date ""
Rev ""
Comp ""
Comment1 ""
Comment2 ""
Comment3 ""
Comment4 ""
$EndDescr
$Comp
L Q_NPN_BCE Q69
U 1 1 5BE4196B
P 3425 3600
F 0 "Q69" H 3475 3600 50  0000 L CNN
F 1 "Q_NPN_BCE" H 3000 3775 50  0000 L CNN
F 2 "TO_SOT_Packages_THT:TO-5-3" H 3625 3700 50  0001 C CNN
F 3 "" H 3425 3600 50  0001 C CNN
	1    3425 3600
	1    0    0    -1  
$EndComp
$Comp
L Q_NPN_BCE Q70
U 1 1 5BE419A8
P 4225 3400
F 0 "Q70" H 4425 3450 50  0000 L CNN
F 1 "Q_NPN_BCE" H 4425 3350 50  0000 L CNN
F 2 "TO_SOT_Packages_THT:TO-5-3" H 4425 3500 50  0001 C CNN
F 3 "" H 4225 3400 50  0001 C CNN
	1    4225 3400
	1    0    0    -1  
$EndComp
$Comp
L R R131
U 1 1 5BE419F6
P 3225 3750
F 0 "R131" V 3305 3750 50  0000 C CNN
F 1 "22k" V 3225 3750 50  0000 C CNN
F 2 "Resistors_THT:R_Axial_DIN0207_L6.3mm_D2.5mm_P7.62mm_Horizontal" V 3155 3750 50  0001 C CNN
F 3 "" H 3225 3750 50  0001 C CNN
	1    3225 3750
	1    0    0    -1  
$EndComp
$Comp
L D D17
U 1 1 5BE41A37
P 4025 3550
F 0 "D17" H 4025 3650 50  0000 C CNN
F 1 "D" H 4125 3600 50  0000 C CNN
F 2 "Diodes_THT:D_A-405_P5.08mm_Vertical_KathodeUp" H 4025 3550 50  0001 C CNN
F 3 "" H 4025 3550 50  0001 C CNN
	1    4025 3550
	0    1    1    0   
$EndComp
$Comp
L C C28
U 1 1 5BE41A66
P 3675 3400
F 0 "C28" H 3550 3525 50  0000 L CNN
F 1 "33p" H 3825 3400 50  0000 L CNN
F 2 "Capacitors_THT:C_Disc_D8.0mm_W5.0mm_P10.00mm" H 3713 3250 50  0001 C CNN
F 3 "" H 3675 3400 50  0001 C CNN
	1    3675 3400
	0    1    1    0   
$EndComp
$Comp
L R R133
U 1 1 5BE41AF8
P 3825 3550
F 0 "R133" V 3905 3550 50  0000 C CNN
F 1 "33k" V 3825 3550 50  0000 C CNN
F 2 "Resistors_THT:R_Axial_DIN0207_L6.3mm_D2.5mm_P7.62mm_Horizontal" V 3755 3550 50  0001 C CNN
F 3 "" H 3825 3550 50  0001 C CNN
	1    3825 3550
	1    0    0    -1  
$EndComp
$Comp
L R R130
U 1 1 5BE41B48
P 3075 3600
F 0 "R130" V 3155 3600 50  0000 C CNN
F 1 "100k" V 3075 3600 50  0000 C CNN
F 2 "Resistors_THT:R_Axial_DIN0207_L6.3mm_D2.5mm_P7.62mm_Horizontal" V 3005 3600 50  0001 C CNN
F 3 "" H 3075 3600 50  0001 C CNN
	1    3075 3600
	0    1    1    0   
$EndComp
$Comp
L GNDPWR #PWR05
U 1 1 5BE41C10
P 3225 3900
F 0 "#PWR05" H 3225 3700 50  0001 C CNN
F 1 "GNDPWR" H 3225 3770 50  0000 C CNN
F 2 "" H 3225 3850 50  0001 C CNN
F 3 "" H 3225 3850 50  0001 C CNN
	1    3225 3900
	1    0    0    -1  
$EndComp
$Comp
L -15V #PWR7
U 1 1 5BE41C51
P 3825 3700
F 0 "#PWR7" H 3825 3800 50  0001 C CNN
F 1 "-15V" H 3825 3850 50  0000 C CNN
F 2 "" H 3825 3700 50  0001 C CNN
F 3 "" H 3825 3700 50  0001 C CNN
	1    3825 3700
	-1   0    0    1   
$EndComp
$Comp
L -15V #PWR8
U 1 1 5BE41CB3
P 4025 3700
F 0 "#PWR8" H 4025 3800 50  0001 C CNN
F 1 "-15V" H 4025 3850 50  0000 C CNN
F 2 "" H 4025 3700 50  0001 C CNN
F 3 "" H 4025 3700 50  0001 C CNN
	1    4025 3700
	-1   0    0    1   
$EndComp
$Comp
L R R132
U 1 1 5BE41D2E
P 3525 3250
F 0 "R132" V 3605 3250 50  0000 C CNN
F 1 "100k" V 3525 3250 50  0000 C CNN
F 2 "Resistors_THT:R_Axial_DIN0207_L6.3mm_D2.5mm_P7.62mm_Horizontal" V 3455 3250 50  0001 C CNN
F 3 "" H 3525 3250 50  0001 C CNN
	1    3525 3250
	1    0    0    -1  
$EndComp
Text HLabel 3525 3100 1    60   Input ~ 0
in
Text HLabel 4325 3200 1    60   Input ~ 0
out
Text HLabel 2925 3600 0    60   Input ~ 0
syncro
$Comp
L GNDPWR #PWR06
U 1 1 5BE42257
P 3525 3800
F 0 "#PWR06" H 3525 3600 50  0001 C CNN
F 1 "GNDPWR" H 3525 3670 50  0000 C CNN
F 2 "" H 3525 3750 50  0001 C CNN
F 3 "" H 3525 3750 50  0001 C CNN
	1    3525 3800
	1    0    0    -1  
$EndComp
$Comp
L -15V #PWR9
U 1 1 5BE41E1F
P 4325 3600
F 0 "#PWR9" H 4325 3700 50  0001 C CNN
F 1 "-15V" H 4325 3750 50  0000 C CNN
F 2 "" H 4325 3600 50  0001 C CNN
F 3 "" H 4325 3600 50  0001 C CNN
	1    4325 3600
	-1   0    0    1   
$EndComp
$EndSCHEMATC
