EESchema Schematic File Version 2
LIBS:JP8-voice-rescue
LIBS:power
LIBS:device
LIBS:transistors
LIBS:conn
LIBS:linear
LIBS:regul
LIBS:74xx
LIBS:cmos4000
LIBS:adc-dac
LIBS:memory
LIBS:xilinx
LIBS:microcontrollers
LIBS:dsp
LIBS:microchip
LIBS:analog_switches
LIBS:motorola
LIBS:texas
LIBS:intel
LIBS:audio
LIBS:interface
LIBS:digital-audio
LIBS:philips
LIBS:display
LIBS:cypress
LIBS:siliconi
LIBS:opto
LIBS:atmel
LIBS:contrib
LIBS:valves
LIBS:JP8-voice-cache
EELAYER 25 0
EELAYER END
$Descr A4 11693 8268
encoding utf-8
Sheet 21 30
Title ""
Date ""
Rev ""
Comp ""
Comment1 ""
Comment2 ""
Comment3 ""
Comment4 ""
$EndDescr
$Bitmap
Pos 3200 2600
Scale 1,000000
Data
89 50 4E 47 0D 0A 1A 0A 00 00 00 0D 49 48 44 52 00 00 04 25 00 00 02 87 08 02 00 00 00 39 6E 65 
1A 00 00 00 03 73 42 49 54 08 08 08 DB E1 4F E0 00 00 00 09 70 48 59 73 00 00 0E 74 00 00 0E 74 
01 6B 24 B3 D6 00 00 20 00 49 44 41 54 78 9C ED DD 4B 76 DB 3A C2 2E 50 EA 5F A7 9F 0C 20 1E A8 
D3 88 1F 8D B8 7B 27 50 A3 4B 06 E0 8C 40 B7 A1 8A 0E 4B 12 41 90 04 48 3C F6 5E B5 4E 39 32 25 
53 10 08 E0 23 40 EA 74 3E 9F 07 00 00 80 0C FE EF E8 1D 00 00 00 9A 25 6F 00 00 00 B9 C8 1B 00 
00 40 2E F2 06 00 00 90 8B BC 01 00 00 E4 22 6F 00 00 00 B9 C8 1B 00 00 40 2E F2 06 00 00 90 8B 
BC 01 00 00 E4 22 6F 00 00 00 B9 C8 1B 00 00 40 2E F2 06 00 00 90 8B BC 01 00 00 E4 22 6F 00 00 
00 B9 C8 1B 00 00 40 2E F2 06 00 00 90 8B BC 01 00 00 E4 22 6F 00 00 00 B9 C8 1B 00 00 40 2E F2 
06 00 00 90 8B BC 01 00 00 E4 22 6F 00 00 00 B9 C8 1B 00 00 40 2E F2 06 00 00 90 8B BC 01 00 00 
E4 22 6F 00 00 00 B9 C8 1B 00 00 40 2E F2 06 00 00 90 8B BC 01 00 00 E4 22 6F 00 00 00 B9 C8 1B 
00 00 40 2E F2 06 00 00 90 CB 3F 47 EF 40 35 5E 5F 5F 23 1F 04 00 00 2E 4E E7 F3 F9 E8 7D A8 40 
38 57 48 1D 00 00 F0 90 BC 31 2F 32 4E 48 1D 00 00 70 43 DE 98 71 4D 11 F7 71 22 E6 11 00 00 E8 
99 EB C5 43 02 61 E3 F2 A0 80 01 00 00 01 F2 C6 56 22 07 00 00 4C 49 7F 7F AA D9 F1 B7 01 3A 00 
00 74 22 F1 FC 46 4C 96 A8 31 6F D4 B8 CF 00 00 70 B8 63 D6 53 D5 32 7C AF 65 3F 01 00 A0 4C 29 
D7 53 8D 47 E7 81 91 FA E5 57 D5 5D 6C 5D DD 0E 03 00 C0 E1 92 DD 0F 37 32 6C DC 6C 50 C5 08 3E 
7E 27 AB 78 3B 00 00 B0 9B F4 EB A9 16 5D C2 61 80 0E 00 00 0D 4B 93 37 56 C4 86 8A 22 47 F9 7B 
08 00 00 65 4A 7C 3F DC 56 87 E6 E1 F7 D5 EA BB 06 00 80 8D 7C DF 1F 00 00 90 4B FA EF FB DB D3 
E9 E5 69 FC CF F3 DB AF A3 F6 A4 04 4A 63 1F CA 79 4C 69 EC 40 21 03 4B D5 D8 6E D4 B8 CF 44 3A 
E0 FB FE 92 38 BD 3C DD D4 CB E1 AE A6 26 51 C5 5A A9 DD 4A A3 73 CA 79 4C 69 EC 60 AA 90 95 33 
30 A5 C6 C6 B9 C6 7D 66 91 C3 AE 17 DF 22 50 05 D3 D6 CE EB 57 85 CC 6E 73 A0 DD 4A A3 73 CA 79 
4C 69 1C 4E 39 03 F7 6A 6C 9C 6B DC 67 96 3A E6 7E B8 59 25 AC 9D E1 9B 68 95 F0 0D 80 B3 6F D6 
B1 9A 84 72 1E 53 1A FB 50 CE C0 22 35 36 1A 35 EE 33 2B 24 BB 7E 63 3C F8 CE 3A 10 8F A9 79 A7 
97 A7 54 CB FE AE EF 25 FE 4B 0C 01 00 80 8B 64 DF 2F 7E B1 6E CC BD E8 59 92 EE 8C F7 DF C3 8F 
6F 47 EF 44 07 94 F3 95 A2 D8 87 72 06 BA E4 C2 F1 06 B8 1F 6E 5B DE 7F FF FB 5F F2 51 CE 57 8A 
62 1F CA 19 E8 95 13 CD 0D A8 F5 FE 54 00 00 34 CF FC 46 03 D2 7F FF 46 7C E4 C8 1A 4E 3A A9 9D 
91 A1 BF 93 D2 C8 27 A6 9C FB 29 64 A5 B1 0F E5 0C 2C 52 63 A3 61 EE A2 13 6D AE A7 2A ED 70 3A 
96 D2 80 26 39 B4 01 A8 42 7D 79 43 17 3B A6 34 F6 31 5B CE 5D 7D 10 4A 63 1F 8A 11 58 A4 C6 C6 
B9 C6 7D 66 85 FA F2 C6 30 57 F9 7A AB 9A 4A 63 1F 81 92 EC B0 90 95 C6 3E 94 33 B0 48 8D 8D 46 
8D FB CC 52 E9 AF DF D8 C7 A5 0A DE 2C FB EB B6 5E 2A 8D 7D 9C DF 7E 29 E4 2B A5 B1 0F E5 0C 2C 
72 DF 68 0C C5 B7 1B 1A BA E6 25 FE FE 8D 45 C2 DF DE CD 0A 1F A7 AF 97 1F 9E CF 9F C7 EE 49 DB 
94 F3 95 A2 D8 87 72 06 96 BA 8E E0 2B 1A BB D7 B8 CF C4 48 B6 9E 2A EB 77 8A 03 00 00 35 4A 93 
37 CC 54 00 00 00 F7 12 E7 8D 15 4F 11 51 00 00 A0 55 E9 EF 4F 15 93 1F 84 0D 00 00 E8 41 CA EB 
37 1E FE 1C D8 52 D8 00 00 80 B6 A5 BC 1F EE F8 92 F1 D9 2C 21 6C 00 00 40 F3 8E F9 BE 3F 61 03 
00 00 7A 90 38 6F 2C BA 78 03 00 00 68 5B FA EF 17 17 27 00 00 80 8B 63 D6 53 01 00 00 3D 90 37 
00 00 80 5C E4 0D 00 00 20 17 79 03 00 00 C8 45 DE 00 00 00 72 91 37 00 00 80 5C E4 0D 00 00 20 
17 79 03 00 00 C8 45 DE 00 00 00 72 91 37 00 00 80 5C E4 0D 00 00 20 97 7F 8E DE 01 EA F0 71 FA 
7A FD F9 F9 FC 79 E0 9E C4 AB 71 9F B9 AA F1 E3 AB 71 9F 01 20 37 F3 1B 6D 1A 8F 7B 92 BF 5A DA 
17 CF A4 C6 7D AE 9A 2A 57 E3 3E 03 14 E7 FD F7 D1 7B 40 7A F2 46 B3 3E 4E 5F E3 47 3C 8B 36 6E 
CC 96 82 EA B6 D0 1E 52 E5 22 A9 72 00 8F 5D C2 86 C8 D1 1C 79 A3 71 31 23 9B EB 06 1D 0E 65 E2 
DF 7B CF E3 E3 45 54 B9 30 55 0E 60 CA CF E1 CB F5 BF B4 44 DE 68 CA D4 92 F1 C0 C0 A5 E7 45 20 
91 6F 36 50 7A D6 E8 AB 72 8B A8 72 00 61 C2 46 93 5C 2F DE 9A CB 70 E4 E1 60 E5 F2 A0 F1 CA C5 
7D 11 7D 9C BE DE 14 4E 60 74 A8 18 AF 54 B9 48 AA 1C 00 7D 92 37 DA 14 39 04 9C DA C0 C8 C6 B0 
6F 29 55 6E 23 55 0E 80 56 C9 1B 2D 9B 1D 02 4E 69 7E FC 17 B9 D4 E7 46 DB 65 92 84 2A 37 45 95 
03 A0 5B AE DF 68 DF F3 F9 73 C5 A8 A5 E1 55 F5 2B DE DA BA 32 EC 96 2A 77 43 95 03 A0 67 E6 37 
7A 11 38 F1 DC 95 A5 25 60 CC B7 9A 2A 77 A1 CA 01 D0 39 F3 1B 7D 59 74 D2 B4 F3 91 A2 13 CC 49 
A8 72 F1 54 39 00 9A 64 7E 63 99 D7 D7 D7 C8 07 23 B7 59 FA F8 A2 3F 3A E5 F9 FC 19 7F 5F CE 96 
06 40 F1 C3 D9 45 EF 3A 6D AD 58 F4 C9 BE BE BE 6E A9 09 BB 51 E5 66 6D AF 72 81 C7 67 5F 2D F0 
C4 F0 6B 56 51 FD 00 38 D6 E9 7C 3E 1F BD 0F D5 C8 D4 25 DF FF 36 B2 0B 5F DD D3 6F 3F 8B 5C FE 
88 70 E3 7B 8C 7C 83 69 3F F7 F8 DF DE 6F 53 F8 B0 4F 95 9B 15 FF 06 D3 06 80 EB F6 C9 4F A6 00 
C7 3A BD 3C 5D 7E 38 BF FD 3A 76 4F E2 5D 1B D2 F2 DB 7C 16 B1 9E 2A D6 EA 3E 3E DF 4C 85 6E 3E 
9F D9 B1 63 CC C4 C2 C6 5A B1 A8 CA A9 0C B5 8B 8C 2B 09 DB 93 54 93 63 EA 1E 00 61 E6 37 A2 44 
9E 02 0C CC 54 CC AE 7F 78 78 AE 3A 66 C0 BA B4 B3 4F B2 44 BE FC 13 0F 59 4F A8 C7 4C 49 AD AB 
15 91 93 5D 69 97 D3 E4 A6 CA 45 9A 7D 8F EB DA 93 F0 96 81 47 D2 FE 45 60 67 E6 37 28 87 F9 8D 
79 AB 7B DC AC B1 41 37 9F 5B FC F9 E6 45 03 B5 D9 EC 1A 3F 52 7C FD 6B D1 D3 29 56 B8 CA 25 6C 
4F 12 56 12 0D 11 00 B3 E4 8D 8C 2E 1D B0 6E B8 61 2B 3E DC 98 5A B1 74 40 39 15 69 E0 5E A0 E6 
00 40 0E F2 46 5E 05 76 E7 E6 28 23 E5 2B A8 D5 B5 22 7E 21 56 51 15 4F 95 8B B4 43 41 09 1B 4D 
F2 51 02 85 FB E7 E8 1D E0 00 4B 87 35 6D 7C 2B 42 45 A3 DE 2D 2B E9 CB 1C 79 A8 72 87 2B 39 91 
B2 C5 F5 C0 F7 99 02 C5 92 37 0E E6 FA 0D C6 7C 9A E4 90 2F 6C 68 88 8E A5 D8 81 2A C8 1B 7B 0B 
9F BA 8E 7C 3C 7E 03 AA B0 A8 02 F8 D0 59 64 76 F5 DD F8 C1 75 6D 91 3A 79 08 C5 0E D4 C2 F5 1B 
BB D2 3D 70 6F 6A F0 A7 B6 B0 3F B5 AE 16 3E 29 A0 22 F2 C6 AE F4 10 DC 53 2B C8 6A 51 05 53 1B 
AB 60 19 1B 4C 79 1D 89 DC 3E EF 0E 31 0C 83 F5 54 FB 7B 78 7F 98 A9 03 63 76 6D 83 B3 E0 6D B8 
AF 15 81 4F D6 CA 16 96 0A D4 8A C8 91 6B B8 81 D2 10 ED 49 D8 80 29 F7 D7 AA C5 B4 6C 5A B0 1D 
98 DF 58 29 49 D5 5C FD 22 0E 8C 32 A5 AD 15 3E 65 66 1D 5B 49 54 D1 FD 69 1F 60 CA A2 F3 B6 EC 
4C DE 58 E3 1A 88 93 BF E6 9E 4F 24 AD 84 B5 C2 90 82 18 45 9D 99 2B 61 1F 9A A7 65 A0 04 31 6D 
CE FE ED D2 CD 74 EB CD AA 01 87 CC E1 E4 8D 35 12 36 FA 9D C7 8C D3 CB D3 F8 7F 47 EF CE 26 86 
02 55 68 A9 CA 8D 1D 55 EB D4 F6 DD 68 61 28 41 4C 3D DC BF AE 3E FC 8B F7 6B AB F6 D9 19 1E 92 
37 56 8A 3C 9C D4 EF 29 0F 47 7B B5 8F FF D4 8A 92 4D 55 B9 7A 6B 9D DE B4 1F C2 06 85 58 54 03 
0F AF AE 1A C9 72 C8 1B EB CD 76 00 39 96 5D B5 21 30 C2 AB 6B F0 77 FF E1 26 A9 15 EA 4C 72 E1 
7A 55 57 AD 1B BB 5F 36 70 D8 AE 90 8D B0 41 99 1E 56 C8 D2 6A A9 46 B2 10 F2 C6 BC 40 5B 1F 8E 
CE 59 A7 1D EB ED 81 66 C7 76 75 0D FE 6E DA B2 61 5B AD B8 7F 35 F6 51 7E AD 8B 6F 88 1E 3E 92 
49 BD 0D 51 2D 94 30 A5 89 19 D2 84 37 DB 5F B1 3B D6 8F 7F 8E DE 81 3A 5C 47 81 2B 52 C1 96 F3 
D9 B3 7F CE 61 73 88 D9 8C 11 F9 74 9F EF 3E CA CF 12 91 16 D5 9C B4 95 67 5D 0B C6 46 C2 06 85 
1B 37 35 85 8F E9 6F 76 B5 C0 3D 6C 9B BC 11 2B A6 76 3E DC 66 F6 89 AB 2B FD 81 47 CB C7 E9 EB 
86 67 FF 99 7F FD F7 2D AF BF 87 F8 FC B9 73 AD 68 55 EE 2A 37 D4 50 EB 86 22 BB C9 D2 F6 A7 19 
4B 47 6F 85 8F F6 68 49 78 EC 5E 6C F5 9B 4A 47 EC C0 7A AA 05 A6 6A E7 EC 49 C7 40 B5 7E F8 AB 
A5 5D 4B 7B BE C7 0D 10 0F 17 18 FC AD AE 15 53 AF 19 99 70 E2 83 10 95 0A B7 27 4B 2B C0 EA B6 
2B 72 03 D6 D9 58 B0 3E 17 72 CB 9D 31 3E 4E 5F 2F FF 4B FB B2 0E 8D A3 9C CE E7 F3 D1 FB 40 E9 
D2 1E F0 91 59 E2 E7 F0 25 E1 1F 1D 86 E1 F9 FC 99 F6 05 C9 47 95 83 2D 03 23 83 2A 86 D1 52 D2 
F3 DB AF 1C AF BF FA 84 69 40 B8 F1 0F 34 AA 8B 26 2E 1E 2E 3A 98 7D 16 5B C8 1B CC BB 3F FE B7 
0C A4 62 16 D3 6F 6F 1C D3 EE 33 3B 4B FE F1 ED 50 EB 54 39 0E 61 7D 08 53 B6 E7 8D A3 E6 D9 66 
4F 39 3D 6C 5D 97 1E 0B 96 20 EE C9 7A 2A 00 00 FE C7 F6 21 F8 EA 57 78 3E 7F 5E FE 37 B5 C1 C3 
A5 56 5B F2 06 B9 C9 1B EC 6D F6 44 4B A6 99 5F 7A A6 D6 01 2C 72 60 DE B8 BA 06 8F C8 E9 E2 B4 
17 B0 91 90 FB 53 71 80 F3 DB AF A9 F5 2D 86 7D 64 A2 D6 01 2C 52 C2 40 7C E9 E5 7C 4B F7 B9 84 
F7 D8 03 79 83 63 3C 1C FC 19 F6 91 D5 7D AD 53 E5 00 0A B4 FA C2 71 CA 24 6F 70 98 CB 50 2F F7 
0D 34 60 6C 1C 39 54 39 80 72 AC BB 4C 9C 2A C8 1B 00 00 1C 43 CC E8 81 BC 01 A5 4B 78 8F F3 C0 
17 14 26 D9 1E 80 26 25 BF E9 53 A6 98 91 EA 3B 76 49 CB FD A9 A0 5C 81 76 70 45 FB B8 FA C6 1D 
DA 62 80 6E 2D EA 05 66 37 0E 7F 71 F8 D2 1B 52 DD FF F5 45 BF 72 7F AA DD 98 DF 80 12 45 7E 43 
EA D2 F0 B0 7A 07 A4 0E 80 DE AC 6E F6 1F 8E E3 03 13 1A 49 56 4C CD EE ED 4D 47 B6 F4 FB 3A D8 
42 DE 80 E2 DC B7 7D 53 8F 44 C6 80 24 F7 07 14 39 00 FA 11 6E F0 63 16 FA C6 F4 1A A9 AE CD 98 
0D 0F 37 9D A6 B0 B1 33 79 03 8A 36 BB E4 74 B6 41 5F 1D 36 A6 7E D0 3A 03 74 25 72 74 BE A2 8F 
B8 4E 7A 6C 09 1E 31 BB 77 9F 34 C2 DB 93 96 EB 37 A0 5C DB 9B C2 A5 A7 70 1E 6E 7F 7F CA 6A E3 
5E 01 50 8B 98 A9 8C 98 5F 85 AF CA B8 5E D7 B1 F4 0B FE 56 D3 97 ED 49 DE 60 C6 6E 47 7E 6E CD 
BC 91 78 49 C2 C6 C3 47 B2 36 D3 CD 7C 52 CD BC 11 4A 66 D6 91 3D 6D 9F 1C 88 B9 22 7C 87 EC E1 
90 D9 99 BC C1 A4 3D 4F 33 EC A3 BD 77 14 90 30 6C 5C 1F CF DD 40 B7 F7 01 B5 F7 8E 28 90 91 13 
7B 4A B8 1E 29 E6 56 54 39 82 87 43 66 7F AE DF E0 81 B6 47 48 97 77 D7 F6 F7 07 55 77 25 9C 2A 
07 50 8B F1 E9 A7 24 A7 A2 C6 CD E3 54 77 30 7E 5C 73 5A 1D 79 83 FF D1 F6 B0 6F AC E1 21 E0 EC 
C9 A7 F0 02 8C 9D 23 8A 2A 07 50 9D E4 91 E3 2A 3E 7B 68 4E 2B 62 3D 15 FF D5 E7 C2 8F F6 DE 75 
7C A3 7F F8 D4 47 7B 85 1F A3 CF 77 0D B4 67 87 1B 3D 6D F9 EE 3F 8A 22 6F 10 1A 00 B5 74 9C 07 
DE 4B 4B 43 C0 2A F2 86 2A D7 52 95 03 9A 14 79 93 D9 75 4F 8C A7 B5 6C 83 F5 54 5D CB FD 65 9F 
05 BA BC AF 87 6F BC 99 F9 D9 D9 85 52 E1 3E 60 CB 6F 67 A9 72 63 CD 54 39 A0 49 D7 85 52 31 2B 
A6 5E FF BA FE 73 CB 9F 0E 67 0C CD 66 75 E4 8D 4E 75 38 EC 1B AB 74 08 B8 C3 1D A2 F2 51 E5 86 
0A AB 1C D0 B9 71 E4 88 D9 F8 E6 87 45 66 E7 31 66 DB C9 A5 F7 63 5C F4 2C B6 B0 9E AA 3B 9D 2C 
65 89 51 D7 72 97 F8 16 BF 34 AA DC 55 5D 55 0E 60 58 DE EF 2C DD 7E F6 8E B7 B9 AF E2 A8 B1 63 
AD 8E F9 8D 8E 74 7E 82 79 4A 2D 27 9E 17 CD 6B 17 42 95 7B A8 96 2A 47 E1 4E 2F 4F 37 8F 9C DF 
7E 1D B2 27 34 2F BE DF 89 EF 9E B6 CF 66 8C FF E8 96 6E B1 96 2E B5 6A F2 46 17 0C FB 66 55 31 
04 AC 28 72 A8 72 B3 AA A8 72 14 EB 3E 6C 5C 1E 14 39 C8 24 55 A7 93 E9 C2 8C C2 FB 44 E4 8D C6 
19 F6 2D 52 DA 10 F0 3E 57 2C 5A 4A 7B 08 55 6E 91 D2 AA 1C 55 78 18 36 C6 BF 92 3A 28 90 DE A1 
67 F2 46 B3 1C D8 AB 15 35 04 BC 4F 17 37 21 A4 9C E0 A1 CA AD 56 54 95 03 D8 8D C6 AD 13 F2 46 
83 0C FB 92 38 70 08 F8 70 5A 23 D3 DF 4A 42 95 4B 42 EA 20 46 60 72 63 BC 8D 29 0E AA 70 6D F1 
B4 6F 6D 73 7F AA D6 B8 11 50 5A E1 1B 0A E5 FB BB 39 2E CE CB 44 95 4B EB A8 2A 07 90 55 B8 53 
B8 DE A5 4A 43 D7 24 79 A3 29 0F 8F 52 C3 BE ED A6 CA 30 77 B3 18 48 1D 2B 2E E4 08 6F 1F F9 6A 
37 9B A9 72 99 1C 55 E5 00 B2 BA DE DC 56 F6 E8 8A F5 54 2D 33 E6 4B 2B B0 DC 25 AB 40 06 48 7B 
5B F4 ED 33 2A AA 5C 5A 47 55 39 80 8D 62 66 E9 AF 5D 46 A0 95 B3 E0 AA 0D F2 46 9B 1C 96 F9 3C 
9F 3F 35 7F F7 14 45 3E AA 1C 4B B9 78 83 63 2D BD 75 FB B8 65 9B CA 1E E3 C7 B5 84 D5 B1 9E 8A 
79 37 07 76 15 C7 79 8D FB CC 55 8D 1F 5F 8D FB 4C 8D 64 09 DA 16 BF E0 6A CF BD 62 23 F3 1B 44 
A9 71 F0 54 E3 3E 73 55 E3 C7 57 E3 3E D3 1E 81 84 66 C4 2C B8 A2 0A F2 06 00 D4 E4 FC F6 6B EA 
AE B8 C2 06 09 1D 7E FF C3 41 D2 68 85 BC 01 00 95 B9 E4 8A 9B D4 21 6C 90 D0 B1 61 23 1C 33 4C 
26 57 47 DE 00 80 2A 8D 27 3A 84 0D 6A 37 3B 95 21 66 D4 4B DE 00 00 E0 7F 3C BC BB 54 8E 2F A2 
15 33 7A 20 6F 00 00 70 6B E9 B7 CA 2E 22 66 74 45 DE 00 00 E0 B1 A5 5F A6 71 DD F8 E1 F6 2E CC 
E8 93 BC 01 00 40 C8 D2 59 8E FB ED 03 49 43 CC 68 9E BC 01 00 C0 01 24 8D 4E C8 1B 00 00 1C E0 
3A E9 21 78 B4 4D DE 00 00 20 AF 4B A2 98 5A 55 35 7E 5C F6 68 8F BC 01 00 E5 5A 74 9D 2E 14 6E 
9C 25 64 8F 7E FC DF D1 3B 00 00 3C 96 F5 86 A4 70 AC E7 F3 E7 E5 7F 81 6D 3E 4E 5F 2F FF DB 6D 
AF C8 C1 FC 06 00 00 87 31 E9 D1 3C 79 03 00 0E 36 3B 83 61 8A 83 4E C4 67 0F A9 A3 22 F2 06 00 
1C 49 96 80 87 AE 89 C2 7A AA DA B9 7E 03 00 8E 24 6F C0 14 17 6F B4 C1 FC 06 00 1C 6C 7C 13 AA 
71 FC 78 F8 E0 D8 DB CB 7F 72 EE 17 1C 23 9C 31 AC A4 AA 8E BC 01 00 05 71 03 5C FA 34 3B 8F 21 
66 D4 CB 7A 2A 00 38 DE C3 69 0D 68 DE EC 1D 6F 63 6E 9B 4B E1 CC 6F 34 E2 F4 F2 34 0C C3 30 FC 
B9 FC F3 FB CB D3 F9 ED D7 81 FB 03 A4 72 7A 79 72 68 77 E2 66 55 95 D4 41 C3 CC 66 74 45 DE 68 
C1 DF B0 F1 E0 41 43 13 A8 97 43 BB 43 53 17 72 40 1B 5C 98 D1 27 EB A9 AA F7 70 44 02 D4 2E 7C 
68 3B F0 1B 26 66 D0 A4 C0 A2 29 2B A6 9A 27 6F D4 6D 76 CC 61 50 02 AD 72 74 37 4C E4 A0 1F 62 
46 0F AC A7 02 28 8E 2C 01 74 62 3C E9 21 7B B4 4A DE 68 9F 81 4B 0E DF 87 3F 3F 87 2F 47 EF 45 
11 EA 2D 0A 87 06 25 73 BD 38 8D 89 F9 B2 F0 EB AF 04 8F C6 58 4F 05 8B 7D 1F FE 5C FF DB 39 45 
01 F9 B8 70 9C 26 5D AF D6 10 2A FA 61 7E 83 22 54 76 B3 9D 1F DF 86 F7 DF C3 8F 6F 47 EF 47 01 
2A 2C 8A F3 DB 2F 33 1B D4 42 D2 A0 6D E3 C8 31 7B 87 5C EA 25 6F B4 AF B2 A1 7C 2D AA 1A 61 E7 
55 61 51 54 71 50 08 45 40 57 9E CF 9F 22 47 AB AC A7 AA 5B 15 C3 26 20 07 87 3F 00 55 90 37 1A 
67 44 02 95 72 F0 02 D0 06 79 A3 7A 81 41 89 F1 0A 54 6D EA 10 3E BF FD 72 74 03 50 0B D7 6F B4 
E0 32 F2 B8 59 ED 6D 38 02 0D F8 EF D1 FD 7E BA 79 04 00 6A 21 6F B4 E3 FC F6 EB E3 FD EF 8D AB 
8D 48 A0 21 D7 6F 38 71 68 03 50 1D EB A9 00 00 80 5C E4 0D 00 00 20 17 79 03 00 00 C8 45 DE 00 
00 00 72 91 37 00 00 80 5C E4 0D 00 00 20 17 79 03 00 00 C8 45 DE 00 00 00 72 91 37 00 00 80 5C 
E4 0D 00 00 20 17 79 03 00 00 C8 45 DE 00 00 00 72 91 37 00 00 80 5C E4 0D 00 00 20 17 79 03 00 
00 C8 45 DE 00 00 00 72 91 37 00 00 80 5C E4 0D 00 00 20 17 79 03 00 00 C8 45 DE 00 00 00 72 F9 
E7 E8 1D A0 0E 1F A7 AF D7 9F 9F CF 9F 07 EE 09 14 CB 61 02 00 F7 CC 6F B4 69 3C EE 49 FE 6A 69 
5F 1C DA E0 30 01 D8 EE FB F0 E7 E8 5D 20 3D 79 A3 59 1F A7 AF F1 23 9E 45 1B 03 5B 6C 39 36 1D 
A7 40 C3 2E 61 43 E4 68 8F BC D1 B8 98 91 CD 75 03 43 19 C8 2D FE 70 73 16 00 E8 CE 8F 6F FF FE 
97 86 C8 1B 4D 99 5A 32 1E 18 B8 58 04 02 BB 89 3C BE 02 07 AC CB 42 80 C6 09 1B 2D 72 BD 78 6B 
2E C3 91 87 83 95 CB 83 C6 2B 70 88 FB A3 F2 E3 F4 F5 E6 78 0C 04 12 47 2E 00 95 92 37 DA 14 99 
3A A6 36 30 B2 81 9D 49 1A 00 B4 4A DE 68 D9 6C EA 98 22 72 40 5A 91 0B 1A 6F 38 0C 01 68 80 EB 
37 DA F7 7C FE 5C 31 6A 71 21 07 A4 B2 E2 68 5A 77 D8 02 40 81 CC 6F F4 22 30 D7 01 E4 B3 F4 A0 
13 33 00 68 8C F9 8D BE 2C 3A 69 2A 9C C0 9E CC 69 00 D0 24 F3 1B CB BC BE BE 46 3E 38 FB AB 15 
5B BE BE BE C6 BF 60 C0 F3 F9 33 FE BE 9C 06 40 B0 5A 7C 68 5F 74 A0 4D B5 03 4B 1F 8F D9 32 FC 
DC 24 2D 12 00 6D 33 BF B1 40 BE 3E 7E 76 E3 6B D2 48 D2 BB 2F 9A B8 30 CB 01 EB 64 3A 76 96 9E 
E0 D8 D2 10 CD 3E 57 DE 00 60 96 BC 11 2B F7 49 BE F8 31 84 0E 1E DA 13 19 4E 72 07 80 15 4F D7 
22 01 10 66 3D 55 94 6B 87 1A 38 7D 18 58 EC B4 A5 3F 9E FA 8B AB 5F D3 7C 05 54 2A DC 10 0D 73 
6D 51 F2 86 68 F6 2F 02 C0 60 7E 23 46 64 1F 1F D8 60 F5 DF 1D BF E0 EB 5F 39 FE 16 70 B8 F0 B9 
80 98 63 7F FF F6 41 8B 04 C0 2C 79 A3 50 81 35 54 3A 78 00 00 6A 61 3D D5 AE EE 13 42 CC B2 87 
87 CF 5A BD 8C 21 FE E6 54 C0 9E F6 BC 17 9C AB C2 00 D8 8D BC B1 93 C0 5A AC F8 2B C5 1F 3E 71 
5D E4 58 B4 BD 7C 02 2B 14 78 2F E9 75 0D 11 00 6C 61 3D D5 1E C2 1D B9 6E 1E D8 41 8E 86 C8 F2 
4E 00 66 99 DF D8 DB C3 65 0C 39 EE 27 03 10 70 7F 55 58 60 96 C3 49 13 00 56 33 BF B1 9F 87 7D 
B9 B3 83 C0 9E 6E EE 74 77 7D F0 E6 87 45 2F B8 7D AF 00 68 98 BC 91 D1 B8 0B D7 25 03 87 C8 DD 
10 69 DC 00 08 B3 9E 6A A5 EB F2 83 98 CD 36 FE 95 4C 2F 0E D4 2E 32 42 6C 6F 2B C2 EB AC 9C 52 
01 20 C0 FC C6 1A 16 41 01 87 8B 3C EB B1 C3 3E 1C BE 1B 00 94 4C DE 58 43 CF 0A 1C CE 58 1F 80 
2A C8 1B 5B E9 E9 BB 72 7A 79 3A BD 3C 8D FF 79 E0 CE 1C EE A6 28 3A 2F 8D 43 88 1C 00 94 4F DE 
58 E9 FE 56 92 B3 9B 51 BB 87 E3 E9 6E C7 D9 53 A5 B1 FF 9E 74 2E 26 72 68 88 00 38 90 BC B1 5E 
E4 C5 E2 7A FA 36 18 49 8F 05 4A 43 41 ED 2F 1C 39 5C D2 0D C0 B1 E4 8D 79 81 BE 7C EA 1E F6 B3 
4F 5C B4 0D 87 9B 1D 43 77 35 C8 56 1A 87 88 09 15 53 FF 1C 3F 1E 7E FA D2 86 48 0B 06 C0 2C F7 
C3 8D 72 ED A4 57 74 C6 31 4F D4 55 03 B3 D6 35 44 F7 19 23 7C 73 DB A5 BF 5A BA 3F 00 F4 46 DE 
88 15 B3 1A E1 E1 36 B3 4F AC B1 AB FE 38 7D 4D F8 6A DF 87 3F C3 8F 6F 09 5F 90 7C 22 E7 2E 4A 
9F E2 78 FF FD 73 F8 72 F4 4E AC 11 B9 2C EA 66 B3 AC 67 3D 6A 6C C1 5A F3 FE 5B 13 0A 94 CC 7A 
AA 05 66 4F 0A A6 3A 6B 18 79 0A 73 DD 94 4B 69 BE 0F 7F 86 61 18 DE 7F 1F BD 23 5B 95 3E C2 E6 
EA FD F7 70 AD 78 15 0A B7 27 81 66 21 90 55 56 B4 5D 91 1B 90 DD A5 F1 AC BF 09 05 1A 76 3A 9F 
CF 47 EF 03 A5 4B 3B 9B 71 AF 8D F9 8D F3 DB AF A3 77 61 27 2D 24 AB 5D E6 37 9E CF 9F B9 FF 04 
7C 9C BE 7E 1F FE FC 1C BE A8 6F DC B8 B6 D5 15 75 4F 35 EE 33 31 AC A7 62 8D B4 1D DB 73 C2 D7 
CA A3 85 11 F6 BE 4A EF 2A DE D2 BF 64 EE 58 0E 53 2A 5D 1C 08 F4 C3 7A 2A 00 00 20 17 79 03 E6 
CD 9E AD 2F FD 74 7E 52 4A 03 00 88 27 6F 40 94 C0 18 BA C3 E1 B5 D2 00 00 22 B9 7E 03 62 5D 46 
D2 E3 6B 39 7A 1E 5B 2B 0D 00 20 86 F9 0D 58 C6 A8 FA 21 C5 02 00 3C 24 6F 00 00 00 B9 C8 1B 00 
00 40 2E F2 06 00 00 90 8B BC 01 00 00 E4 22 6F 00 00 00 B9 C8 1B 00 00 40 2E F2 06 00 00 90 8B 
BC C1 8C 8F D3 D7 A3 77 01 AA E4 D8 01 80 C1 F7 8B 13 60 B4 04 1B 5D 0E A2 E7 F3 E7 D1 3B 02 00 
87 91 37 78 40 D2 80 84 A4 0E 00 7A 26 6F F0 3F 24 0D C8 44 EA 00 A0 4F F2 06 FF 25 69 C0 0E A4 
0E 00 7A 23 6F 10 4A 1A 97 51 91 28 02 2B 04 0E 1F A9 03 80 7E C8 1B 5D 9B 4D 1A C0 46 52 07 00 
9D 93 37 3A 25 69 C0 9E A4 0E 00 BA E5 FB 37 BA F3 71 FA 3A 15 36 9E CF 9F 06 3D 90 4F E0 10 0B 
1C 98 D4 EE F5 F5 F5 F5 F5 75 FB 36 E5 A8 68 57 81 12 C8 1B 1D 91 34 A0 04 52 47 57 AE 43 F3 C0 
18 3D 66 9B 72 5C 76 B2 8A 5D 05 0A 21 6F 74 41 D2 80 D2 48 1D 9D 58 34 2E 37 88 07 9A E4 FA 8D 
C6 B9 4E 03 4A E6 BA 8E AE 3C 5C 34 75 54 C6 90 6D 80 DD 98 DF 68 96 39 0D A8 85 B9 8E B6 8D 47 
F6 31 AB AA 76 20 6C 00 7B 92 37 1A 24 69 40 8D A4 8E 86 4D 8D EF 8D FB 81 1E 58 4F D5 9A 40 D2 
D8 79 4F 1A F7 FE 7B F8 F1 ED E8 9D 28 83 A2 48 2A BC C2 CA 81 DC 80 EB AA AA C8 79 8F AC FB 70 
F3 60 E4 73 53 EF 0E D0 38 F3 1B 4D 79 38 46 31 A7 91 DE FB EF 7F FF DB 39 45 91 C7 D4 61 6B 96 
A3 5E 81 74 91 64 04 7F 99 04 8B AF 21 75 DD 81 17 A8 9A BC D1 32 49 23 93 9F C3 97 EB 7F 3B A7 
28 B2 72 08 37 66 9F 09 8D 6B F0 88 C9 1E 0F 27 5B 66 9F B2 68 7B 00 EB A9 DA 64 8C 92 9B 11 F6 
95 A2 C8 ED F9 FC 79 1D 38 3A B4 CB B7 62 20 BE E5 FB 37 02 0B F0 C6 8F 87 6B CE D2 BF 2B 6C 00 
8B 98 DF 60 DE 4D 47 65 C4 03 F7 1C 26 0C 9B 07 E2 AB 9F 7E 99 0A 0B D4 3A B7 1C 00 0E 64 7E 83 
28 06 4F 30 CB 61 C2 C6 8B 22 B6 CF 1B 8C 2B A1 80 01 14 42 DE 00 80 64 0E 5F 6B B4 22 66 2C BD 
5D AF 6B CD 81 45 AC A7 02 80 EA 85 AF 11 0F AC B6 5A FA 15 84 AE 17 07 96 32 BF 01 00 55 9A 9D 
CA 98 5D E3 B7 FA 4A 71 79 03 88 27 6F 00 40 4D B6 C7 8C 8B 40 78 18 FF EA 7E 33 61 03 58 44 DE 
00 80 64 F2 7D C9 46 AA 98 71 11 0E 0F F7 57 68 08 1B C0 6A F2 06 00 A4 71 3F 46 DF 3E 3A 0F C7 
8C 75 77 45 5B 14 1E F6 F9 9A 42 A0 61 AE 17 07 80 5C B6 0C D0 67 AF FF CE 7A 0B E6 C0 22 2B 80 
45 E4 0D 00 48 EC 66 4E 20 E1 48 3D 77 CC 98 22 6C 00 AB C9 1B 00 90 DE D4 F5 0F 1B 85 EF 7B 9B 
89 B0 01 6C 21 6F 00 40 16 1B 23 47 78 2A E3 1A 3C 7C 8F 38 50 38 D7 8B 03 40 2E 37 DF 8E B7 62 
6D D5 38 72 4C 45 8B F1 E3 87 AC B6 02 08 30 BF 01 00 79 A5 BA C5 53 CC 65 E2 26 3D 80 D2 C8 1B 
00 90 5D DA BB CA 5E 83 87 05 57 40 F9 AC A7 02 80 3D DC 7F 57 77 92 EB B0 E3 17 5C DD 87 93 C8 
1D 70 6F 5C 60 0B F3 1B 00 B0 93 4C 37 AD BA DA E1 7B 39 2E E4 0D 20 9E BC 01 00 FB C9 1D 39 62 
16 50 6D FF A3 F2 06 10 CF 7A 2A 00 D8 D5 FD 4D AB 6E 7E 58 21 9C 31 56 AF A4 02 D8 CE FC 06 00 
1C 60 FB 45 11 B3 57 84 EF B6 BC 0A 20 40 DE 00 80 34 96 5E 05 BE 6E 6D D5 EC 5D A7 C4 0C A0 28 
D6 53 01 40 32 4B E7 28 E2 B7 9F BD 2A 43 C0 00 CA 24 6F 00 40 B9 96 5E 98 01 50 1A 79 03 00 4A 
14 5E 31 B5 E7 9E 00 6C 21 6F 00 40 35 24 0D A0 3A F2 06 CD 1A 9F 1A D4 43 57 C7 C7 47 7B C6 DF 
2F BE DA F5 D0 70 5C 00 B5 70 7F AA D6 7C 1F FE 1C BD 0B 45 B8 59 87 30 7B 9D 25 1B A5 2D 61 1F 
DF 3D 87 76 ED 96 DE BA 6A F8 7B 9B A9 A9 DF CE DE 0C 17 86 F7 DF 47 EF 01 0C 83 F9 8D C6 5C 46 
24 DF 87 3F CF 47 EF 49 AB EE C7 C1 4E 31 5E 5D 0A 47 81 E4 E0 D0 EE D9 F8 98 9A 8A 16 E6 03 79 
E0 12 36 DE 7F 0F 6F 47 EF 09 DD 93 37 DA F2 E3 DB F0 FE 7B F8 F1 ED E8 FD 68 90 33 88 91 A4 8E 
2C 1C DA F5 98 9D C1 08 6C 30 FB DC EB 91 15 68 91 2C B8 E2 E2 E7 F0 E5 FB F0 E7 E7 F0 E5 E8 1D 
01 79 A3 3D 46 24 A9 B9 45 4C C0 F3 F9 F3 61 F9 48 1D E9 39 B4 6B B0 F1 F2 8C F8 0B 3C 4C 7A 10 
43 D8 A0 10 F2 06 4C 92 34 62 5C 8A 42 EA 80 61 F3 15 E1 EB 9E 1B 9F 3D 1C 8C C0 21 E4 0D 78 40 
D2 58 4A EA 80 8B 71 E4 18 E7 87 87 0F 26 17 B3 E0 0A 60 67 F2 06 FC 0F 49 63 0B A9 03 C6 92 DC 
00 77 29 49 03 28 8D FB E1 C2 7F 05 6E 2B 19 BE 2B 25 37 02 C5 E5 DE 9D F4 E0 E1 B4 46 6E E1 7B 
E3 6A C4 80 03 99 DF 00 73 1A 59 98 EB A0 67 37 AB AA 32 A5 8E D9 F4 EE 28 03 4A 20 6F D0 35 49 
23 37 A9 83 6E 4D 5D C8 B1 9D 98 01 D4 45 DE 88 F5 B0 B7 D8 7F 61 2E A9 24 4C 1A AB EB C6 F6 4A 
75 C8 EA F0 15 A4 0E FA 94 F6 08 15 33 20 15 83 BA 9D 9D CE E7 F3 D1 FB 50 81 70 15 2C A7 82 9E 
5E 9E 2E 3F 9C DF 7E 1D BB 27 87 BB EF 98 63 6E DB 92 24 69 EC F0 DB FB 6D CA A9 84 B3 62 CA 3F 
F0 F1 F5 C9 A1 5D B5 9B C3 73 E9 D1 1A 8E 19 9D 1F 1A 04 D4 F8 CD 8F 3B B4 75 B5 8C E8 1A 63 7E 
63 5E E4 97 C5 AA A3 E5 DB 2D 69 5C B7 99 DA 6C 7B A5 BA 1F C1 D4 52 03 CD 75 40 24 0B 3E 21 A1 
8D 1D 37 5B 98 DF 98 11 58 7D 1B F3 C8 CE 9C 04 BD 8A BF 09 D2 8A 6E 7B 51 65 58 F7 AB C0 23 53 
0F 06 1E 2F 56 D6 8F A9 25 0E ED DA AD 9B 8D 7C 78 80 74 7E 2C 10 CF FC C6 D8 C6 8E 9B 8D DC 0F 
37 24 5C F3 84 E0 DA 25 B9 41 E4 54 35 98 AA 3C DB 2B D5 F8 15 6E B6 AF AE 4E BA 47 27 9D 48 38 
8E 09 DF F7 16 98 B5 B4 E3 66 3B 79 23 24 66 A1 94 4A 59 A3 54 C3 DC 15 9F FE C6 4A F5 B0 35 9C 
8A 34 B5 90 3A E8 C1 8A D3 01 E1 43 E3 1A 3C 64 0F 88 57 5D 17 D9 86 2C D7 6F B4 34 40 AF 6B 6F 
99 55 C2 B8 76 75 A5 0A 2F C4 AA 7A A2 63 08 5E D7 01 3D 1B B7 5A 53 07 C8 F8 F1 12 5A 39 20 87 
7A 07 D8 E9 F3 46 E4 6A 90 92 0B 85 26 D5 DE 07 CF CE F3 B6 71 64 49 1D 10 10 73 9F BD 1A 57 ED 
C3 6E 6A 3C 1F 77 51 F5 00 3B F1 7A AA F8 37 59 66 71 AC 60 B5 1F C9 A9 54 40 D8 65 A9 95 05 57 
B0 42 8D D7 6F D4 3E C0 4E 39 BF 11 F3 39 DD 2F 3A 2F B3 5C 22 95 5C 35 A9 54 E4 3C 06 C0 45 FC 
82 2B 33 1E 74 EB 3E 63 54 D4 C9 36 30 C0 4E 36 BF 11 39 F2 8E FF BC CB 27 6C 90 9C 4A 05 6C 31 
3B E9 01 DD 8A 59 49 55 60 E7 DB C6 00 3B 4D DE 58 3A 48 2A AA 08 D6 31 2E 24 39 95 0A D8 CE 02 
2A 78 A8 C6 BC D1 CC 00 3B CD 7A AA D7 BF 96 3E 25 C9 5F DF 9F 71 21 0F 6D 99 C1 8C AF 54 B3 67 
38 56 FC 75 A0 76 E1 8C 61 C6 83 CE DD 77 8E 53 8F 54 3D 40 1D 4A DD FF F4 EB A9 9A 27 6C F0 D0 
96 8A A1 52 01 2B CC 5E 11 6E 79 15 DC 9B 1A 91 EB 8B F3 C9 F2 FD 1B 0D 53 17 99 B2 FA 8C 82 4A 
05 2C 32 BB 5C 4A C0 80 29 BA DA 43 54 9C 37 4E 2F 4F F7 0F 9E DF 7E E5 FB 8B C6 85 44 8A CF 1E 
2A 15 10 49 CC A0 61 37 83 BA D3 CB 53 D6 11 DD FE EE 47 AD 8D BD C1 B0 C4 DF BF B1 9B 87 61 23 
F0 F8 76 C6 85 CC 1A D7 8D 98 7A A2 52 01 B3 22 57 4C 09 1B D4 EB E1 E0 ED F4 F2 94 6F 50 B7 B3 
ED 6F B0 F6 71 C2 61 79 63 CB 48 2B FC F1 E4 A8 9D C6 85 3C 14 73 FD D9 EC 73 55 2A E0 21 17 66 
D0 83 9D 07 75 FB F7 B9 5B DE 42 33 57 84 1E 93 37 F2 85 8D 1C CA FC E4 28 C4 FD D2 A9 F0 3F 6F 
1E 54 A9 80 A5 C4 0C 9A 71 C8 0C C6 9E D7 8B CF BE C1 B4 53 1C C5 8E 2E 0E B8 7E 63 87 B2 48 B8 
EC 2F 7E 85 4C 69 1F 2D F9 CC 66 8C D9 A7 47 3E 51 A5 02 EE 8D 27 3D 64 8F DA F9 34 F7 11 DF 71 
97 D6 F3 8E F7 3C 7C 75 68 B1 61 63 18 86 D3 F9 7C DE F3 EF 6D 2F 8B 66 16 F3 F1 AF F7 DF 3F 87 
2F B9 FF 48 8E 76 3C B2 1A 2F BD AE E3 E1 73 23 8F 9D 92 9B 9B 78 B9 BF AD EC FB F0 67 E7 A6 6F 
A3 6B BB D7 D5 F5 85 5C C5 1C 11 86 AA 35 BA FF 64 13 7E 8E D7 17 2F B9 6E 18 D4 0D 71 0D FB 8A 
D5 DA 45 D9 75 3D 55 1B 23 21 12 7B FF 3D 0C C3 F7 E1 CF D1 FB B1 46 E0 4C C3 54 6D DF 38 13 32 
FB F4 C8 CD 7A 76 A9 6C A7 D3 E9 E8 1D 81 58 2E 0A 67 91 9B 2B 7F 7C DF 3C 87 DB 6F 7E 23 55 D8 
10 85 1B 54 ED FC 06 99 64 ED 1D FF 1B 6E 7F 7C AB 68 AE C0 FC 06 0F 59 8A 53 BB E4 F3 1B 81 1B 
0C 6C 79 D9 7C 0C EA 86 D4 F3 1B 4B 37 DE C7 4E D7 6F EC 3C B3 D1 6D 97 5C EB A0 E4 2D FD 4B 3A 
9D D3 98 84 9D E5 77 DD 1B AD 78 3E 7F 6A EB B8 08 D4 84 62 C3 46 A4 CA 86 34 FF 2B 49 A0 8A 19 
45 AF 58 10 B1 A7 3D D6 53 A5 0D 1B 55 57 3B 00 80 84 66 EF 9B BC F3 FE A4 D5 FC A8 6F F6 0D C6 
5F BD B9 65 FD 76 6E D9 F3 46 8E 99 8D F0 67 D3 7C D5 04 00 68 20 69 34 3F 66 DB F8 06 97 8E A2 
8B CA 18 63 79 F3 46 BE 65 54 53 9F 5F F3 15 17 00 E8 5C 03 49 E3 EA FC F6 AB ED 41 DD CE 6F B0 
CC C8 91 F1 FA 8D DC D7 6C 5C 3E A4 CB C2 B8 36 6A 24 00 40 40 AB D7 69 8C 07 75 43 8B E3 BA EB 
1B 6C EF AD C5 C8 95 37 76 BB 40 BC CF 8F 0D 00 E8 4A AB 49 A3 2B DD 8E 5A B3 E4 0D DF B3 01 09 
CD 7E C5 C7 D2 DF AE 7B C1 F8 6D 68 52 81 37 3C 81 9D 1D B5 86 7E 7B D2 C8 D4 23 C4 6F A9 01 E9 
5C FA EB 37 84 0D 48 68 45 27 11 FE D5 D4 6F 6B BF 16 8D 7C C6 B7 3D 51 01 E8 56 DA F1 77 A4 24 
D7 69 E4 EB 11 22 37 D6 80 EC A9 CC 42 4E 9C 37 54 29 48 C8 71 C4 B1 EE 6F B0 08 DD DA F9 58 38 
F6 8A F0 84 6F 56 1B B2 45 33 F7 A7 4A B9 9E 4A D8 80 84 02 07 D4 F8 57 81 DF DE 3F 37 FC C4 A9 
3F 17 FF 5C 9A B1 FD 94 27 B4 27 FE 44 FE 16 69 AF D3 58 DD 23 C4 AF 92 5A B4 81 1E 64 A9 6B 89 
85 8B 6E DD 27 B8 9B 64 79 23 50 A1 E3 9F 08 5C 84 D3 7B 64 7B 9D B6 A1 D7 49 F4 A3 F0 7E 0B 1A 
16 98 D3 D8 F8 CA FB 0F FD 6F 3A 32 27 D1 BE A3 17 00 00 1D C3 49 44 41 54 AD 56 1B 47 8E C8 ED 
73 EE CE 1A 69 D6 53 6D 79 63 05 16 0A 1C 2B 1C 36 A6 36 8E 7F CA D2 2D D3 3E 97 BA 18 19 C0 B1 
B6 AC 9E DA A7 47 08 BF E0 C3 1E 4D AB B2 D4 81 1F 65 12 F2 06 54 69 EA C0 99 CD 2A 8E 56 C2 9C 
83 84 75 16 9D 2A 8A 91 F0 3A 8D 9D 7B 84 A9 A2 D0 A4 6C 31 5B 7A 25 37 DA 59 D6 53 41 81 3E 4E 
5F 3B B9 43 79 ED 07 63 60 ED 32 B9 25 1F 30 ED 60 D1 32 03 76 D0 E7 49 8D B4 C7 4E E1 BD 55 38 
45 44 16 45 C9 83 E3 62 D5 5B 62 E9 EF 87 0B C5 0A DC EE 63 E3 C6 15 D9 B9 B5 52 E6 15 A9 2B 6C 
BC FE 75 FD E7 91 7B C3 5F 1B 3F 88 4A 3F C7 84 F5 70 87 7B 4F 6D B4 31 6C 58 55 D5 27 79 83 EE 
C4 0C 6A AF 1B 34 36 FC DD D8 D0 2F ED 53 E3 8B 51 D2 38 5C 45 03 77 A7 45 4B D6 E1 47 53 D1 B1 
B3 5D 92 F5 51 3D 14 14 37 92 AD A7 82 BA 5C 46 B7 0F 4F 23 DD 0C 7C 9B 59 88 15 19 36 62 56 88 
C6 FC B9 C8 62 14 33 4A 30 5B 37 4A 18 1F 6C A9 B4 EC A9 AB 31 68 B7 61 23 55 4F 41 27 E4 0D BA 
16 48 1D 0D DB 61 75 75 4C 8A 90 34 0A 11 F3 99 1E 3B A5 10 B3 30 03 F6 27 6C 40 24 EB A9 E8 45 
60 51 EC 78 31 CF C3 41 70 03 23 E3 54 DD 43 92 D7 39 F6 7B 73 59 E7 A8 11 C6 D4 7C 8B 11 0F C7 
12 36 20 9E F9 0D FA 72 19 CB AE 08 15 25 AC AA 7A 5D 7B 1F 9E 54 93 E0 D7 1D 08 BF C8 54 49 86 
4B F8 F0 E2 65 FB 47 9F 5C 92 C5 E2 94 AF BA B1 7B 75 3B 3C B6 A8 2B 59 7D 0C 86 B7 AC B1 DC D8 
C2 FC 06 3D 5A 77 12 FD D8 59 8E D5 DD 5B C2 F3 52 31 FB B0 A2 94 CC 69 94 EF F0 D1 95 09 8D 86 
1D 5E BB 96 AA 6E 87 C7 16 ED BC C0 4F 2A F2 06 FD AA 6B 98 BB AE A1 DF 79 12 7C 69 D8 A8 EB 23 
60 67 06 37 3D A8 6E EC 5E DD 0E DF 58 3D 41 51 E9 FB A5 10 D6 53 D1 BB C0 0A AB 7B 25 AC AA 1A 
A2 CF F5 96 BC E2 B6 84 62 AC C5 E9 E5 E9 E6 E7 F3 DB AF E3 76 27 CA 78 9F 2F 96 EE 73 C9 B5 97 
54 12 8E DD EF AB DC 90 E1 48 A9 3D 6C DC 08 74 25 0E 40 D2 32 BF 01 C3 B0 64 F8 7B E0 AA AA 45 
1D 40 8E DE 22 FC 3A F1 25 23 6C 44 3A BD 3C 3D 1C 45 3D 7C 70 BB C0 E7 1B 5F 85 92 EC B3 B1 4E 
0F 52 8D DD A7 AA DC 90 FA 48 A9 3A 6C 4C 1D 53 8B BA 12 58 4D DE 80 61 58 98 22 72 47 8E 40 AF 
16 F3 C8 D2 0D 56 B8 7F CD 06 6E E1 55 9A F0 50 29 E1 40 6A 51 0D 09 6F 9C 64 9F 85 8D 1E EC 36 
76 CF 14 CE 6B 11 33 7D 11 DE 12 92 90 37 A0 44 8B 22 47 E0 E9 09 05 5E 73 69 D8 10 4E 92 C8 31 
90 7A F8 29 27 AC 4E B3 FB 2C 6C F4 20 F7 32 2A 1E 72 3D 06 07 72 FD 06 AC 19 FE EE 70 21 C7 75 
65 ED D2 5E 21 B2 53 59 FA 78 FC 06 6C B7 F3 28 6A BC 8C 7B F5 AA AA 4C 6B 57 68 CC FE AB 92 4E 
2F 4F E5 5F F2 94 4F E4 D1 0D 59 C9 1B B0 D2 9E 91 23 7E 9B F8 EE 24 E6 C5 63 AC 9B AC 28 E4 CA 
FB DA ED 1C 4B DE 5E FE 93 F5 F5 2D 2B 5F E7 FB F0 E7 E7 F0 E5 E8 BD 88 72 D4 C0 37 CD 91 F2 FE 
FB 52 CE 1F 6F FF 2F C1 AB 15 26 55 8F 90 C0 FB EF E1 C7 B7 A3 77 82 C4 AC A7 82 A2 2D 1D 75 2D 
CA 1B 2B 9E 78 B3 99 95 51 A4 B2 62 1E AF 94 E1 D1 A1 BE 0F 7F AE FF 2D 5C DD 67 D9 DF 7F 0F 95 
94 F3 BD 15 AB 70 D7 CD AE C7 3F 71 72 B3 F7 DF FF FE 97 86 9C CE E7 F3 D1 FB 40 32 D7 53 38 3D 
CF 1D 5F DC 8F 83 C3 67 D3 D7 8D 9B 9D A1 5F 9D 37 96 7E 1C 09 8B BA 8A C3 A4 E1 55 E9 53 C5 BE 
7A 0C 5A E5 E0 35 9D D3 CB D3 E5 7C 70 C9 F5 79 C8 16 36 76 3D 52 FE CE 6F 64 D5 79 B7 F2 71 FA 
7A 99 AF EB BC 1C DA 63 3D 15 0C C3 C2 26 DE 49 FD 7B FA 86 B4 CE 6F BF 62 06 52 A5 0D 31 93 0C 
FE 96 9E 8B 5D 7D 22 B6 1D C5 2F 3E 39 76 66 23 D9 61 F2 96 E6 65 C6 F4 26 F7 6A 59 1C C8 22 D6 
53 D1 A6 9B E1 AF D1 70 5D 7C 7C 31 4A 0B 1B 31 52 ED F3 FD 62 AA AE F3 46 D9 B2 86 8D 1A 8F 02 
E8 90 BC 41 B3 9E CF 9F D7 FF 1D BD 2F 2C E6 E3 AB 71 20 15 DE E7 7C 5F F6 4C B1 76 98 D9 D8 B9 
D6 01 2B C8 1B 00 85 9A 1A 2A 9D DF 7E 15 3B 8A 0A EC 73 8E 3F 27 72 94 6C B7 65 54 3B D7 3A 60 
29 D7 6F 00 94 EB 32 60 AA E2 1A F7 AB F1 3E 57 B1 C3 E4 B0 F3 35 1B 6A 1D 94 4C DE 00 20 3D 63 
BE 9E 1D 75 81 B8 5A 07 65 B2 9E 0A 00 48 A6 EE EF D9 00 32 90 37 00 28 C8 A2 41 AA 11 6D 69 84 
0D E0 9E BC 01 40 59 D6 7D DB 3D 00 65 92 37 00 38 DE FD F7 69 04 E2 84 EF DF 00 A8 88 EB C5 01 
28 C2 FD 37 85 2F FD AE 71 00 0A 64 7E 03 80 82 B8 7E 03 A0 31 F2 06 00 65 09 2F A6 8A DF 86 FD 
DD 4F 52 01 58 4F 05 40 89 8C 59 2B E5 83 DB E2 E3 F4 F5 F9 FC 79 F4 5E 40 62 E6 37 00 00 4A F1 
71 FA FA 71 FA 9A 63 63 38 8A BC 01 00 50 96 98 20 71 DD 40 E4 A0 70 F2 06 00 40 89 02 A9 E3 E6 
71 91 83 92 C9 1B 00 00 E5 B2 68 8A DA C9 1B 00 00 45 78 3E 7F 4E 5D 2F 3E 4E 1D 0F E3 87 4C 42 
B1 E4 0D 00 80 82 44 A6 8E 87 BF CD B6 53 B0 9E BC 01 00 50 9C 40 EA 08 10 39 28 90 BC 01 00 50 
A8 75 A9 03 8A E2 FB FE 20 D6 E9 E5 E9 EF 8F 7F 2E FF F7 FD E5 E9 FC F6 EB A8 FD 01 A0 13 97 C8 
11 39 77 E1 4B 03 29 8D F9 0D 88 32 0A 1B B7 8F 4F FD 0A 00 12 8A 4F 11 56 55 51 14 79 03 12 10 
39 00 C8 6D 51 8A 10 39 28 87 BC 01 F3 C4 09 00 80 75 5C BF 01 00 50 BA 15 F3 15 99 2E E4 18 EF 
89 0B 45 88 21 6F 40 1A BD CE 81 FC 19 86 E1 E7 F0 E5 E8 DD E8 C0 FB EF E1 C7 B7 A3 77 02 A8 4C 
F2 C8 71 13 7B 5C 9B 4E 0C EB A9 80 AD BE FF BD 61 17 B9 BC FF FE F7 BF 00 35 08 7F 35 61 78 63 
17 9F 34 46 DE 80 E5 2E A7 99 9D 6C 1E FE 5B 08 E7 F3 F9 E8 FD 68 DC 65 06 C9 3C 12 F4 AC AE 69 
84 6B 60 98 4D 0E 8B 62 09 95 B2 9E 0A 56 B9 0B 1B FD 7E 11 C7 DB D1 3B D0 07 61 03 58 14 39 0E 
1C C4 C7 7F 4F C8 D4 AF EA 0A 57 CC 32 BF 01 09 F4 1B 36 00 58 EB 66 54 DD C6 20 FB 3E 45 3C 7C 
64 2A 6C F8 3E F5 26 99 DF 80 79 E7 B7 5F BD 5E 0E 0E 40 46 5D 8D AD C3 F3 1E 5D 15 45 6F E4 0D 
88 72 99 C1 78 98 3A 4C 6E 00 C0 30 9D 28 24 8D CE C9 1B B0 C0 4D EA 90 34 00 E0 62 C5 15 23 92 
46 27 E4 0D 00 00 36 59 1A 36 24 8D AE C8 1B 51 5E 5F 5F 17 3D 0E 00 C0 8D 45 31 63 DD E8 6B FB 
98 ED B2 A5 31 5E 42 EE 4F 35 2F 50 E1 D4 45 00 A0 73 39 EE BD BB 6E F4 B5 7D CC 76 DD CC 18 2F 
21 79 63 2B D5 11 00 E8 D6 CE 61 23 EB CB DE 6C 60 8C 97 8A F5 54 33 C6 55 ED BE DA 5D 67 DC D4 
48 00 80 B0 8F D3 D7 D9 25 55 81 19 86 F1 AF 02 BF 0D 3C 37 72 CC 76 DD CC 18 2F 09 F3 1B B1 1E 
D6 36 93 6E 00 00 A9 84 47 56 4B D7 44 C5 BF F2 FD E3 C6 78 09 C9 1B 21 91 09 38 7E 63 00 80 9E 
05 D6 5F 2D 1A 53 AD 58 FB 14 33 73 F2 70 33 63 BC 8D E4 8D 10 F5 0C 00 A0 1C 4B AF C1 58 FA 9A 
66 39 72 C8 72 FD 46 F8 23 A9 EB 03 AB 6B 6F 01 00 4A 56 F2 37 6F 4C 2D C4 72 2D C7 46 E9 F3 46 
64 EE 6C E6 03 6B E6 8D 00 00 2C 55 72 7E B8 B1 FA 9A 10 91 63 A3 C4 EB A9 E2 3F 83 06 3E 2D 75 
0E 00 A0 04 B3 17 9A E7 58 88 45 A4 94 F3 1B 31 4B DC EE 57 C8 55 F7 E9 46 DE D6 00 00 80 DD 8C 
67 21 66 B7 8C 7C 90 24 92 CD 6F 44 5E 4F 73 9F 2F EB FA 74 57 87 66 00 00 B2 8A 49 1A C6 6C FB 
4B 93 37 96 5E BC 5F EF 27 2D 6F 00 00 94 49 DE 28 53 9A F5 54 AF 7F 2D 7D 4A 92 BF BE B3 A9 70 
55 EF 3B 02 00 28 D6 D2 55 52 F7 5B C6 8C D9 66 57 E8 84 FF 3A 01 E9 D7 53 F5 43 C0 00 00 C8 2A 
7E C5 7E 60 33 63 B6 63 B5 F0 7D 7F A7 97 A7 03 FF BA EA 0B 00 94 E6 FB F0 E7 FB F0 E7 E8 BD 48 
20 E1 40 CB 98 ED 28 59 BE EF 6F 1F E3 98 71 FD F9 FC F6 2B ED 5F 89 9C C2 03 00 38 DC CD 49 D8 
EF C3 9F EF 2F 4F 43 86 01 D2 21 4C 53 54 EA B0 F9 8D 2D D5 E5 F4 F2 34 35 A7 91 76 AE 63 E9 75 
F0 00 00 47 09 8C 82 8E 5D 0C B2 D1 78 18 16 7F 15 07 E5 38 26 6F 64 AD 0A 09 8F A8 98 FD 94 49 
00 80 F2 95 1F 39 E2 2F F8 BE 7F C4 98 AD 64 7B E7 8D FB 89 B0 A5 1F F9 51 47 CB D4 E5 47 81 DF 
02 5D F9 38 7D BD FE EF E8 7D 01 BA 53 7E 9C 88 B1 28 72 CC BE 48 E4 2B 93 DB 1E D7 6F 4C 7D AE 
F9 3E EF 4C 87 DC DB CB 7F 56 FC EA 10 6D 34 3A E5 53 CE 5C DD 64 8C 8F D3 D7 E7 F3 E7 51 3B 03 
F0 AF F7 DF D7 1F 4F EF A7 9F C3 97 03 F7 25 C6 F5 DC F4 D2 81 E2 F8 A4 F6 FE 83 4F 02 B2 CF 6F 
F8 BC 01 56 BB 99 2D 31 73 02 F4 60 D1 E2 A8 B4 2F 4B 0E 87 E5 0D 80 03 95 7F AB 16 EB B2 80 4D 
7E 7C 3B 7A 0F 36 59 77 5D 78 E0 59 E1 33 E0 91 7F CE B0 76 9D D3 F9 7C DE F9 4F 6E 5C 3F 17 B9 
82 A5 FC C1 44 0E F9 EE 0B CC 98 72 E6 DE 7D 36 58 BD 9E 2A 10 33 AC D1 E2 86 E6 88 AB 98 01 D2 
F6 7A 92 B0 AD A3 1F 07 DC 9F 6A 87 EB 75 34 BB 40 8D 02 73 1A CF E7 4F 9D 3A 00 35 3A F8 7E B8 
2B 22 87 2C 01 B4 47 D2 00 36 9A 1D 20 19 41 71 94 E3 BF EF 2F 79 E4 70 38 01 15 91 34 80 54 0C 
81 28 D3 61 79 63 A3 A9 23 CA 91 06 D4 42 D2 00 92 33 40 A2 40 7B 7C FF 46 26 8E 1C A0 52 AE 08 
07 F2 B9 0C 90 DC 4B 80 72 54 9C 37 00 AA 23 69 00 D0 9B 64 79 63 FC 9D 8E 00 DC 48 95 34 C2 2D 
ED D2 1B D2 CF 6E B9 EE 16 F8 00 70 95 E6 FA 8D 15 DF 81 A2 8B 02 3A 91 F0 3A 8D 15 A3 FF 2D 2D 
73 A6 AF F8 05 A0 2B 29 F3 C6 10 DD F1 E8 9F 80 1E 94 70 45 B8 F6 16 80 63 A5 5F 4F 15 5E 58 B5 
F1 DC 1B 40 2D 02 49 63 DD 0B 8E 5B CB 40 5B 7A DF 08 6F 9F A6 08 2F D3 B2 9E 16 80 80 94 D7 8B 
8F 23 47 E4 F6 09 FF 3A 40 E1 52 4D 68 4C 8D FE 77 6E 54 C5 0C 00 62 24 FE FE 8D 2D 57 25 02 B4 
6A FB EA A9 C2 2F 90 D3 A4 03 30 25 FD F7 FD C5 5C CE A8 67 02 3A 91 FC 3A 8D 45 0B 56 B7 BF 66 
A6 27 02 CD 08 DC 7C 0F 2E B2 7C FF 86 1E 08 A0 8A EF D3 58 71 A5 07 C0 8D 4B E4 A8 A2 D1 E3 10 
E9 E7 37 00 A8 82 B0 01 24 14 B8 23 1F 9D 93 37 00 7A 94 24 6C 2C BD 19 3A D0 3C A9 83 7B 59 D6 
53 01 50 B2 F0 AD 75 C3 DB 2F FD 2D D0 21 2B AC 18 33 BF 01 D0 97 A5 61 23 FE D5 80 0E 05 EE 8A 
61 AE 83 0B 79 03 A0 23 69 C3 46 AA 17 01 6A 27 75 10 60 3D 15 40 AD 16 DD 5E 7C CB 05 1B 53 1B 
5F BF E3 55 EA 00 86 BF 0B A8 1E A6 0B 2B AC 7A 66 7E 03 A0 4A D7 B1 7E FC C6 53 FF DC B8 0F 09 
5F 10 68 80 B9 0E 6E C8 1B C0 26 A7 97 A7 D3 CB D3 D1 7B D1 A3 F8 B1 BE FB DE 02 FB 93 3A B8 92 
37 80 35 2E 31 E3 9A 34 A4 8E 43 C4 44 8E 9B 0B 36 84 0D 60 4F 52 07 83 BC 01 AC 30 15 2D 44 8E 
1D 4C 4D 56 CC 66 89 1C 49 43 7A 01 62 48 1D 9D 93 37 80 94 44 8E 4C 22 67 30 66 37 CE 44 F0 00 
66 49 1D DD 92 37 80 65 66 13 85 C8 91 5B 09 01 E3 A8 3F 0A D4 4E EA E8 90 FB E1 B6 C9 80 6F 1F 
CA 79 4A E9 25 F3 FE FB E7 F0 E5 E8 9D 58 6C BC 62 6A E7 B1 BE EF 17 07 D2 0A DF 39 D7 6D 73 1B 
63 7E 03 E8 CC FB EF 61 18 BE 0F 7F 8E DE 8F 8C 04 00 A0 0A 53 73 1D 66 39 1A 23 6F 34 E5 FC F6 
EB E8 5D 80 E2 FD F8 36 0C 43 8D F3 1B 43 F4 AD 6F EF BF 44 7C 5D 02 89 79 96 6C 03 6C 14 58 61 
45 1B 4E E7 F3 F9 E8 7D 80 CA 5C 17 0B F5 19 F0 62 D6 4A 75 58 32 F7 67 E3 74 9F EC A0 F3 E6 88 
80 4C 75 23 6B 5B 77 7D 71 ED 67 63 CC 6F 00 00 10 E5 26 09 08 06 C4 70 BD 38 90 98 F3 AC 00 0D 
93 31 58 CA FC 06 B0 8C 38 01 00 C4 33 BF 01 2C 76 89 1C F7 17 72 88 22 00 C0 0D F3 1B C0 4A E3 
74 71 7E FB 25 6C 00 00 F7 E4 0D 00 00 20 17 79 03 00 00 C8 45 DE 00 00 00 72 91 37 00 00 80 5C 
E4 0D 00 00 20 17 79 03 00 00 C8 45 DE 00 00 00 72 91 37 00 00 80 5C E4 0D 80 2C 3E 4E 5F 3F 4E 
5F 8F DE 0B 00 38 D8 3F 47 EF 00 40 CB 2E 91 E3 F9 FC 19 B9 65 E4 C6 00 50 0B F3 1B 00 D9 CD CE 
75 8C 7F 6B 56 04 80 96 C8 1B 00 3B 99 4A 1D 02 06 00 0D 93 37 00 B2 98 5A 16 15 73 5D 87 04 02 
40 33 E4 0D 80 5C 9E CF 9F B3 A9 63 2A 5A 88 1C 00 B4 41 DE 00 C8 2B 9C 3A 76 DE 19 00 D8 99 BC 
01 B0 87 40 EA 98 22 8D 00 D0 00 79 03 60 3F 4B 53 87 C8 01 40 ED E4 0D 80 BD AD 98 EB 00 80 4A 
C9 1B 00 45 F3 3D E5 00 54 4D DE 00 38 C0 D2 08 21 72 00 50 29 79 03 00 00 C8 45 DE 00 D8 9B C9 
0A 80 87 BE 0F 7F 8E DE 05 D2 93 37 00 EA 20 A5 00 6D BB 84 0D 91 A3 3D F2 06 00 00 05 F8 F1 ED 
DF FF D2 10 79 03 60 6F 6E 86 0B F0 98 B0 D1 A2 7F 8E DE 01 80 16 3C 9F 3F C7 EB 9D 66 13 85 6F 
FD 03 A0 13 F2 06 40 1A 66 2D 00 E0 9E F5 54 00 00 40 2E F2 06 00 00 90 8B BC 01 00 00 E4 22 6F 
00 00 00 B9 C8 1B B1 5E 5F 5F 8F DE 05 00 00 A8 8C BC 11 E5 12 36 44 0E 00 00 58 44 DE 98 27 66 
00 00 C0 3A F2 C6 0C 61 03 00 00 56 93 37 42 84 0D 00 00 D8 42 DE 08 71 D9 06 00 00 6C 21 6F CC 
10 36 00 00 60 B5 3D F2 86 21 3B 00 00 F4 29 6F DE 78 7D 7D B5 24 09 00 00 BA 95 31 6F C8 18 00 
00 D0 B9 7F 72 BC A8 A4 01 00 00 0C 39 E6 37 84 0D 00 00 E0 22 FB F5 1B 59 5F 1F 00 00 28 59 AE 
F9 8D EB 95 E2 00 00 40 B7 B2 CC 6F 48 1A 00 00 C0 90 E9 7A F1 3D 9D 5E 9E 2E 3F 9C DF 7E 1D BB 
27 25 B8 94 86 A2 80 C6 7C 1F FE 5C 7E 78 3E 76 3F 00 60 B9 8A F3 C6 35 69 8C FF D9 E7 50 FB 61 
51 0C BD 96 06 B4 C4 D1 CD 14 9D 20 50 8B 3D BE 5F 3C B9 D3 CB D3 4D 3B 3B FE D5 CE 3B 73 B8 C0 
5B EE B0 34 A0 25 8E 6E A6 04 3A 41 75 03 28 4D 95 79 23 AC AB A6 76 F6 CD 76 55 1A D0 12 07 2F 
53 D4 0D A0 2E F5 E5 8D 98 76 36 61 5B 7C 73 A3 2D F7 DD 02 0A 61 D0 D9 A7 9D 3B 41 80 ED 2A BE 
7E 23 2C 6B 6B FB F6 F2 9F 7C 2F BE D5 FB EF E1 C7 B7 F1 03 55 74 3C F5 AD 39 BE 2B E7 7E 55 58 
14 55 1C 14 10 EB D1 31 58 7E 25 AF AF D9 AF 51 85 ED 33 4D AA 6F 7E 83 90 F7 DF FF FE B7 2A E5 
77 8D FF A3 DA 72 4E AF C2 A2 A8 AC B2 41 58 85 C7 E0 85 23 31 BB 6A EB 06 ED 91 37 60 B1 9F C3 
97 EB 7F 3B A7 28 00 CA A4 7D A6 1C CD AE A7 EA 64 A2 36 F2 FC 50 C9 A5 51 E9 29 2E 2D F8 55 BD 
45 51 F2 71 31 54 7B 68 50 88 92 AB B7 BA BD 9B 7A DB 67 1A D3 E6 FC 46 C9 ED EC FE 94 06 40 33 
62 9A 74 CD 3E 50 94 FA F2 86 66 74 4C 69 40 B7 1C FE 00 54 A1 BE BC 31 CC F5 B2 BD F5 C1 4A 03 
9A E4 D0 66 8A BA 01 D4 A5 CA BC 31 4C B4 A7 E7 B7 5F 7D B6 B3 4A 03 9A 34 75 08 3B B4 D1 EC 03 
15 A9 F8 7A 71 AD EA D8 A5 34 3E DE BF 5E FE F9 AC 70 A0 09 0E 6D A6 A8 1B 40 2D 6A 9D DF 00 00 
00 CA 27 6F 00 00 00 B9 C8 1B 00 00 40 2E F2 06 00 00 90 8B BC 01 00 00 E4 92 E5 FE 54 AF AF AF 
81 07 1F FE 16 00 00 68 4F FA F9 8D D9 38 21 6F 00 00 40 27 E4 0D 00 00 20 97 FD D6 53 01 00 00 
BD 71 BD 38 00 00 90 8B BC 01 00 00 E4 22 6F 00 00 00 B9 C8 1B 00 00 40 2E F2 06 00 00 90 8B BC 
01 00 00 E4 22 6F 00 00 00 B9 C8 1B 00 00 40 2E F2 06 00 00 90 8B BC 01 00 00 E4 22 6F 00 00 00 
B9 FC 73 F4 0E 50 87 8F D3 D7 EB CF CF E7 CF 03 F7 24 5E 8D FB CC 55 8D 1F 5F 8D FB 0C 53 D4 E7 
7D 28 67 7A 60 7E A3 4D E3 F6 2B F9 AB A5 7D F1 4C 6A DC E7 AA A9 72 35 EE 33 2D 71 0C D6 48 39 
D3 09 79 A3 59 1F A7 AF 5A AE E4 6E 4A 55 09 8F A9 72 39 A8 72 C4 73 0C 72 A1 DD A0 34 D6 53 35 
EE D2 CA 98 A2 DD 4E 7B 1D 49 95 4B 45 95 63 1D C7 60 CF B4 1B 94 C9 FC 46 53 A6 3A 18 27 BD B6 
08 94 9E 1E 5D 95 CB 41 95 23 9E 63 90 0B ED 06 25 33 BF D1 9A 4B B3 F2 B0 D1 71 D2 6B A9 40 6F 
AD 18 AF 54 B9 84 54 39 56 70 0C 76 4E BB 41 F9 E4 8D 36 E9 7E 36 D2 7C 2F A5 CA 6D A4 CA B1 91 
63 B0 43 DA 0D 6A 21 6F B4 4C F7 B3 82 E6 7B 0B 55 6E 05 55 8E 84 1C 83 9D D0 6E 50 17 79 A3 7D 
BA 9F 48 9A EF 54 54 B9 48 AA 1C 99 38 06 1B A6 DD A0 46 F2 46 2F 74 3F 01 9A EF 1C 54 B9 00 55 
8E 1D 38 06 1B A3 DD A0 5E F2 46 5F 74 3F 37 34 DF B9 A9 72 37 54 39 76 E6 18 6C 80 76 83 DA C9 
1B 2B BD BE BE 2E 7A 7C BC C1 EC 36 91 AF 33 FB 22 53 74 3F 43 D2 E6 FB E1 67 11 F9 29 AF F8 1C 
2F 4F D9 52 01 F6 A7 CA 0D F9 AB 5C E0 F1 F8 D7 BC 7F 85 F0 6B D6 55 0F D7 D9 72 80 2F 7A 7C F6 
65 35 FB 1D 2A A4 AB 5A F7 C4 FB ED 7B 68 31 78 E8 74 3E 9F 8F DE 87 FA AC EE 12 AE BF 4A D2 A9 
24 39 6E 63 DA B2 FB 6D 12 F6 4C A7 97 A7 CB 0F E7 B7 5F A9 5E 73 08 EE F3 0E C3 BE 45 BF 5D F4 
39 8E 37 AE B4 E1 56 E5 1E 6E 13 2F F9 90 F4 E6 29 4B EB 58 A5 F5 30 D2 F6 D6 3E FE B7 BB 95 76 
AB C7 60 8D 4A 68 37 92 74 64 F1 7F 3D FC 14 75 A3 55 BE EF 6F B1 D5 33 0F C9 7B E5 24 2F F8 7C 
FE EC E7 EB A2 C2 5F 87 B4 A8 05 8F 99 9A 58 DD BE 47 3E AB D2 71 9E 2A 77 B1 B4 CA 5D 6C A9 75 
0F 37 DE 5E 8B 2A AD 87 31 62 4A 7B 5D 72 58 5D 68 9A FD 1E EC DC 6E 6C E9 AA 36 76 85 F4 C3 FC 
C6 32 B3 E7 A4 A7 36 58 34 52 8C 39 F3 BD EE EC 78 58 7C 37 53 FE 89 AE AC EF E5 BE CC 03 8F CC 
6E 1C FF 09 8E 5F 33 47 05 D8 9F 2A B7 C8 EA F6 27 B0 65 F8 C1 84 7F B1 3A F1 87 F0 CD 23 DB BB 
89 3D 4B BB A5 63 B0 46 87 B7 1B 31 F5 7C E9 21 30 FB 78 A0 02 AB 1B AD 32 BF B1 C0 EA 18 90 A3 
27 CE D1 F1 AC 3B 71 52 AF 24 EF 77 EA EC 4E 64 F2 5C F4 87 62 5E BF 2E AA 5C BC AC A7 21 A6 AA 
71 92 BD AA D1 EC 10 6D 4B 24 D8 F2 31 AD 7B 62 40 6F C7 60 8D B2 B6 1B EB D2 6F 64 8B 31 7E 91 
DC 83 22 0A 27 6F EC E1 72 68 D5 72 80 F5 D0 FD A4 7A 8F 2B 3E D3 75 95 E1 61 4B DD CC 50 4F 95 
DB D9 4D 75 AA BD FE 1C A5 A5 72 2B AA 7E 72 55 F8 E7 12 3E 04 C2 5D 55 4B 87 0F 31 E4 8D 9D 54 
77 68 15 DE CC AD 56 C2 FB 4A 12 36 6E FE 59 5D 05 BB 57 C2 47 93 43 69 EF 6B EA 8C 23 94 56 57 
7B 56 FB 67 31 3B 6D 42 6F E4 0D 42 6A 6F F2 C6 1A 78 2F 53 F3 DA 81 DF 56 A7 81 8F E9 AA C0 F7 
D2 58 6D 21 87 02 EB 6D 57 1A 28 FF C8 76 46 2B D4 15 79 03 8A B6 74 8D 6C CE 7D A1 6E EA 09 90 
5B FC 15 23 81 6D 68 8F BC 51 2B 43 87 DE F8 A0 D9 22 53 8B A1 21 BA 91 B5 40 94 36 BB D9 A7 26 
D3 8F 7F 8E DE 01 42 66 8F 49 07 6D 3F 7C D6 AC 36 7B 42 71 63 53 A3 72 8E 5D 2F 8C 59 5D 2C 4A 
9B 12 6C AC C9 2A 2A 63 E6 37 2A E6 60 06 66 2D 5A 92 97 E9 F5 7B 93 AF 4C 94 36 7B 52 DF 48 45 
DE A8 98 86 00 48 25 D3 C9 F8 6E 65 2A 16 A5 CD CE 54 39 92 B0 9E 6A AB EB 84 63 A6 17 0F FF 2A 
EB 5F 67 A9 A3 2A C3 EC 6F 69 D5 A2 2A B7 A5 3D 09 3F DE 49 43 B4 F4 6D CE 16 F8 D2 DF 76 55 DA 
E4 B3 4F 4D D6 67 31 66 7E 63 93 03 5B FF EB 5F 74 D0 16 62 CB 3A 57 58 21 61 FB B3 BA 3D E9 A7 
21 2A 61 AC DF 4F 69 93 8F AE 8A 43 C8 1B C9 38 7A 57 38 BD 3C 1D BD 0B C9 18 0A 54 A7 C9 EA C7 
0E 94 36 F5 D2 55 71 08 79 63 93 9B C3 D5 D1 1B EF F4 F2 74 33 DA BB 7F A4 3A DA F1 C2 35 56 EB 
B4 3F 7B 8A 2F 6D 1F 44 C0 CD 11 57 F5 01 58 AF C8 AE 4A 4D 26 21 79 63 AB 9B E9 75 C7 67 8C 40 
07 53 57 DF 73 FF 71 8B 1C C5 6A A6 D6 8D 2D 6A 7F D4 C9 8D 62 4A DB 62 95 29 81 68 51 EF 01 58 
AF D9 AE 2A A6 26 AB E7 C4 93 37 16 08 1C 9F 31 8F EC B6 33 85 9B ED 5A EA EA 7B EE D7 73 3B EB 
5C A0 BA 2A D5 43 49 DA 9F A9 CB 0F 56 B7 27 F5 36 44 61 8B 4A 3B F2 89 8B B6 49 FB C4 F2 35 70 
84 96 29 BE 26 4F FD 73 AA C5 68 AF 12 92 D5 E9 7C 3E 1F BD 0F 95 89 3F C6 62 CE 3B 86 FB FE 84 
3B B3 C5 C7 E9 EB CD 23 CF E7 CF D5 AF 16 D3 AF 9C DF 7E AD 7E FD 8B B4 FB 7C 6F CB 67 B4 E8 43 
8F 1C 61 34 36 10 49 FE F1 ED 50 EB 72 57 B9 8B B4 ED CF EC 8B AF 7E 62 1B 56 1F E6 31 4F 2C BC 
B4 F7 6F F6 87 14 2D 7F 75 CA 69 37 B6 8C 46 1E B6 36 EB FA AC 6B 55 E9 B0 32 B4 ED 9F A3 77 A0 
3E 2B 62 7D F8 44 D7 EA CE E3 C0 3E FE BE 89 5C E2 CF FC EB BF 6F 79 FD 3D BC 46 AF 9A B8 F9 88 
03 B9 A2 D5 41 5B 12 5B AA DC F7 88 2A 37 D4 50 EB 86 B5 F5 24 A6 BA D6 D8 10 E5 B6 FA A8 9C 7D 
62 8D A5 9D BE D9 FF F1 ED E6 81 D2 67 39 DE 7F FF 1C BE 1C BD 13 6B C4 D4 E4 87 DB E4 AB C9 F4 
C6 7A AA 35 62 F2 43 E4 C9 C5 D5 67 14 DA 3E C8 23 07 88 87 0B B4 C5 0F 6B C2 FD 3F 23 1F 8F E9 
2A 62 36 A3 01 4B DB 9F FB DF C6 BF 66 64 C5 6B 58 F8 00 0F 97 F6 8A D7 5C B7 33 B5 7A FF 7D F4 
1E 2C F1 FE 7B A8 A7 6F BA B7 B4 AB 8A 7F E2 C3 ED F5 59 DC B0 9E 8A 79 DB 4E 6B DD 8A 6C AF 93 
9F 46 CA 31 49 4D 26 AA 1C 1C 6B 8F 63 F0 6E 7E A3 74 BB CC 6F 74 DE 6E 58 4F D5 2A EB A9 58 63 
4B 83 F8 FD A0 EB 37 A8 DA 96 2A F7 1C B7 4E E3 39 F5 F5 1B D0 92 DC CD FE 50 FE 10 F3 2D FD 4B 
6A 37 E8 84 F5 54 00 C0 C1 4A 0F 1B C0 06 F2 06 7B 9B ED 54 F4 3A 24 A7 D6 C1 81 1C 5F D0 39 79 
83 03 04 FA 1E DD 12 FB 53 EB 20 B7 F0 51 E6 18 84 B6 C9 1B 1C E3 61 EF A2 CB 21 9F F3 DB 2F B5 
0E 0E F4 F0 18 9C 3A 30 81 96 B8 5E 9C C3 E8 63 D8 9F 5A 07 C7 72 0C 42 87 CC 6F 00 00 00 B9 98 
DF 80 D2 AD FE 52 C8 F0 0B 46 7E AD A4 EF 63 02 00 B6 30 BF 01 E5 5A F1 85 D0 F1 2F 18 FF FD AF 
22 07 00 B0 9A BC 01 25 8A 19 E5 2F 8A 01 4B 63 C3 CD C6 22 07 00 B0 8E F5 54 50 9C FB C1 FD D4 
23 AB 63 49 F8 59 53 4F 91 3A 00 80 A5 E4 0D 28 5A 60 3D 55 4C E4 88 89 2E 53 1B 4C FD 20 75 00 
00 F1 AC A7 82 72 6D 1C D9 DF AF 89 5A 11 36 1E BE CE 96 BD 02 00 BA 22 6F 40 FB 22 97 42 05 2E 
25 17 39 00 80 75 AC A7 22 E4 E3 F4 F5 E8 5D 48 E6 F2 5E 9E CF 9F 47 EF C8 4E 96 46 82 D9 FB 56 
ED B3 98 4A 95 83 63 B5 74 0C D6 48 BB 41 93 E4 8D 8E 5C 7B 91 98 86 AC D5 2E 27 B2 29 5F 54 56 
05 0A AC 86 DA 59 7C 49 76 5E E5 86 FA 6B 1D 05 D2 EC 57 AA 93 AE 8A 7E 58 4F D5 8B 71 47 12 EE 
54 3E 4E 5F 9B EF 75 C2 EF 31 BE AC CA 54 60 D8 18 82 25 A9 CA 0D F5 D7 3A 0A A4 D9 AF 5D DB 5D 
15 5D 31 BF C1 BF 7A 6B B0 E2 4F 20 D5 7B EA 68 CB FD A9 36 8A A9 4E AA DC F8 71 D8 9F BA 57 BE 
1E BA 2A 9A 67 7E A3 0B F7 3D CA CD 23 81 93 28 CD B4 5F 53 6F A4 B1 13 7B BB C5 89 B0 D9 22 55 
E5 C2 CF 6D A9 4E 72 08 CD 7E A5 3A E9 AA E8 8D BC D1 BE D5 D3 E8 CF E7 CF C6 7A 9D C0 3B BA 96 
C3 C3 D2 68 AC 95 3F 6A 91 D5 B5 84 55 B9 61 AE CA 05 1E 87 59 E1 4A D5 D5 31 58 23 5D 15 ED B1 
9E AA 5F 81 86 A9 ED FE E6 F2 EE 96 36 D6 25 4C 55 2F FA 86 EF D9 DB 4C 85 37 58 FA B2 63 91 0B 
8E C7 0E 2F DB AC D6 55 39 C8 A1 CF 63 B0 46 F5 76 55 70 CF FC 46 E3 96 8E 66 FA 39 B9 B5 E2 9D 
1E 3B 34 4C 75 3B DA D9 FB DE 6E A4 CA 4D A9 AE CA 51 29 C7 60 4B B4 1B B4 41 DE 68 D9 A2 46 A7 
CF 2E 67 E9 BB 3E B0 1D CF 9D 13 92 50 E5 66 55 54 E5 A8 91 63 B0 49 DA 0D 6A 27 6F A0 CB A9 A6 
04 AA 88 1C 31 6A 29 F0 7C 94 00 C7 52 03 6B E4 53 A3 5E F2 46 9B DC C8 22 9F 3D 0B 36 70 37 DB 
02 23 87 2A 97 89 C3 99 48 EA 09 57 2A 03 45 91 37 1A A4 95 59 61 51 A1 ED 1C 39 6E A2 45 E4 3F 
67 2F 07 4F 9B 58 8A 2D C0 62 2D 2D 04 85 46 98 63 B0 07 3E 65 2A E5 FE 54 B8 9D 45 71 66 33 46 
E4 D3 03 CF 3A 30 6C 00 C9 39 06 81 92 99 DF 68 8D 5E 67 85 15 85 96 BB 9C E3 6F 7D FB 70 B3 ED 
F7 B4 8D A7 CA AD A0 D0 48 48 75 EA 44 81 5D 15 44 92 37 9A B2 BA 65 D1 24 AD B0 43 A1 85 BF 25 
23 3C 89 B1 EE F1 C8 AF 27 BF 6E A6 CA ED 49 A1 71 CF 31 48 98 0F 9A 12 58 4F 05 A5 5B BD 2C 6A 
E9 3C C6 96 19 15 00 80 87 CC 6F 30 0C DD 7F B3 6C E7 6F FF 10 9D 97 79 E7 6F 9F 12 A8 84 D5 F1 
91 51 AF D3 F9 7C 3E 7A 1F 48 E6 3A 6D 9A BC 55 1A 4F C8 D6 D2 E4 E5 DB E7 7C E5 5C 1D 55 6E 4C 
95 63 7F 8E C1 DA 69 37 C6 4E 2F 4F 97 1F CE 6F BF 8E DD 13 D2 B2 9E 8A 28 15 B5 56 57 35 EE 33 
57 35 7E 7C 35 EE 33 4C 51 9F F7 A1 9C E9 81 F5 54 00 00 40 2E F2 06 00 00 90 8B BC 01 00 00 E4 
22 6F 00 00 00 B9 B8 5E 7C 46 FC 57 0D F8 52 02 00 00 B8 61 7E 23 64 51 84 90 37 00 00 E0 86 BC 
91 8C BC 01 00 00 37 AC A7 8A 22 4B 00 00 C0 0A E6 37 00 00 80 5C E4 0D 00 00 20 97 64 EB A9 56 
AF 38 AA 6E A9 D2 78 87 AB DB 79 00 00 D8 53 9A F9 8D 2D C3 EE 8A 86 EC AF AF AF 37 7B 5B D1 CE 
03 00 C0 FE 8E 5F 4F 55 C5 90 FD 3E 69 8C 7F B5 EB AE 00 00 40 3D 12 DF 9F AA 93 C1 F7 F5 6D 5E 
7E 08 A4 11 00 00 E8 D9 F1 F3 1B 75 B9 89 16 37 C1 03 00 00 18 93 37 62 4D 4D 62 88 1C 00 00 30 
45 DE 08 B1 5C 0A 00 00 B6 90 37 66 48 1A 00 00 B0 9A BC 01 00 00 E4 92 F8 FE 54 3B 3B BD 3C 5D 
7F 3E BF FD 3A 70 4F 4A 70 7A 79 1A 86 3F 97 9F 9F 8F DD 95 A6 29 E7 B1 EF 7F 8B E2 FB CB 93 63 
30 93 71 95 53 CE 8C 69 8E 98 52 63 DD 18 0F EA 68 4C F6 BC 71 BF 1E 29 D5 0A A5 9B 7A 79 F9 67 
F2 9E B8 8A 8B 37 EE 0F D1 4C A5 D1 39 E5 3C A6 34 F6 A1 9C 99 B2 4F 27 48 75 6A 6C 34 6A DC 67 
16 C9 B8 9E 2A 70 43 A7 8D 23 F8 D3 CB D3 54 08 4E 1B 8E AF D7 8B CF 6E 73 A0 C0 5B 76 AA 20 21 
E5 3C A6 34 F6 A1 9C 99 12 E8 04 D5 8D 9E D5 D8 68 D4 B8 CF 2C 95 3E 6F BC FE 35 BB 59 F2 3F 7D 
91 B0 76 86 EF 75 5B C2 D4 C7 EC 9B 75 AC 26 A1 9C C7 BA 7A B3 07 52 CE 4C 51 37 78 A8 C6 AE AA 
C6 7D 66 85 3D BE 5F FC E1 17 E4 0D 71 B3 07 F7 62 6A DE 29 DD 12 E7 6B A8 38 30 41 41 5D 12 1E 
80 04 28 E7 3E ED DC 09 02 6C 97 F7 FA 8D A9 8B 37 6E 52 47 8E 91 FA FE 81 F8 ED E5 3F 3B FF C5 
48 CE 0D EC 43 39 8F 29 8D 7D 28 67 A6 A8 1B 3C A4 62 70 88 2C 79 23 66 2A C0 6C 00 00 00 61 E6 
EB 1A 90 E6 FA 8D F1 75 0E 91 41 42 DE C8 E2 C7 B7 7F FF 4B 3E CA F9 4A 51 EC 43 39 33 45 DD 60 
4A 2B 75 43 D8 68 C0 E9 7C 3E 1F F5 B7 C3 57 63 4F 89 9C 0A EC A4 76 2A 8D 7D C4 94 73 3F 85 AC 
34 F6 A1 9C 79 48 B3 CF 94 1A 1B 8D 1A F7 99 15 DA FC 7E 71 55 73 4C 69 40 93 1C DA 7D 8A F9 DC 
D5 0D A0 28 F5 E5 0D CD E8 98 D2 D8 C7 6C 39 77 F5 41 28 8D 7D 28 46 60 91 1A 1B E7 1A F7 99 15 
EA CB 1B C3 5C E5 EB AD 6A 2A 8D C3 29 E4 31 A5 B1 0F E5 DC 33 CD 3E 53 02 9F 7E 8D 15 A3 C6 7D 
E6 A1 FA AE DF 18 BB 59 F6 D7 79 BD 54 1A 3B B8 5F 69 DA 73 39 2B 8D 7D 28 67 A6 68 F6 79 A8 C6 
46 A3 C6 7D 26 5E DD 79 03 00 00 28 59 B2 F5 54 BE 52 03 00 00 B8 91 FE FB 37 92 BC 20 00 00 D0 
80 C4 79 63 C5 53 44 14 00 00 68 55 FA FB 53 C5 E4 07 61 03 00 00 7A 90 F2 FA 8D 87 3F 07 B6 14 
36 00 00 A0 6D 89 EF 4F 15 1F 21 84 0D 00 00 68 DE 31 DF F7 27 6C 00 00 40 0F 12 E7 8D 45 17 6F 
00 00 00 6D 3B F2 FB FE 00 00 80 B6 1D B3 9E 0A 00 00 E8 81 BC 01 00 00 E4 22 6F 00 00 00 B9 C8 
1B 00 00 40 2E F2 06 00 00 90 8B BC 01 00 00 E4 22 6F 00 00 00 B9 FC 7F 77 24 C1 01 69 53 ED 5C 
00 00 00 00 49 45 4E 44 AE 42 60 82 
EndData
$EndBitmap
$Comp
L PMP4201 Q8
U 2 1 5BE4100E
P 2400 5100
F 0 "Q8" H 2700 5150 50  0000 R CNN
F 1 "PMP4201" H 2350 5250 50  0001 R CNN
F 2 "TO_SOT_Packages_SMD:SOT-363_SC-70-6" H 2600 5200 50  0001 C CNN
F 3 "" H 2400 5100 50  0000 C CNN
	2    2400 5100
	1    0    0    -1  
$EndComp
$Comp
L PMP4201 Q10
U 2 1 5BE4114C
P 3200 5100
F 0 "Q10" H 3500 5000 50  0000 R CNN
F 1 "PMP4201" H 3100 5000 50  0001 R CNN
F 2 "TO_SOT_Packages_SMD:SOT-363_SC-70-6" H 3400 5200 50  0001 C CNN
F 3 "" H 3200 5100 50  0000 C CNN
	2    3200 5100
	-1   0    0    -1  
$EndComp
$Comp
L PMP4201 Q10
U 1 1 5BE41288
P 2400 6400
F 0 "Q10" H 2700 6450 50  0000 R CNN
F 1 "PMP4201" H 3000 6350 50  0001 R CNN
F 2 "TO_SOT_Packages_SMD:SOT-363_SC-70-6" H 2600 6500 50  0001 C CNN
F 3 "" H 2400 6400 50  0000 C CNN
	1    2400 6400
	1    0    0    -1  
$EndComp
$Comp
L PMP4201 Q8
U 1 1 5BE412BA
P 2000 6400
F 0 "Q8" H 2300 6450 50  0000 R CNN
F 1 "PMP4201" H 2600 6350 50  0001 R CNN
F 2 "TO_SOT_Packages_SMD:SOT-363_SC-70-6" H 2200 6500 50  0001 C CNN
F 3 "" H 2000 6400 50  0000 C CNN
	1    2000 6400
	-1   0    0    -1  
$EndComp
$Comp
L PMP4201 Q13
U 1 1 5BE41453
P 3600 6400
F 0 "Q13" H 3900 6450 50  0000 R CNN
F 1 "PMP4201" H 4200 6350 50  0001 R CNN
F 2 "TO_SOT_Packages_SMD:SOT-363_SC-70-6" H 3800 6500 50  0001 C CNN
F 3 "" H 3600 6400 50  0000 C CNN
	1    3600 6400
	1    0    0    -1  
$EndComp
$Comp
L PMP4201 Q11
U 1 1 5BE41459
P 3200 6400
F 0 "Q11" H 3500 6450 50  0000 R CNN
F 1 "PMP4201" H 3800 6350 50  0001 R CNN
F 2 "TO_SOT_Packages_SMD:SOT-363_SC-70-6" H 3400 6500 50  0001 C CNN
F 3 "" H 3200 6400 50  0000 C CNN
	1    3200 6400
	-1   0    0    -1  
$EndComp
$Comp
L PMP4201 Q14
U 2 1 5BE41513
P 4900 6400
F 0 "Q14" H 5200 6450 50  0000 R CNN
F 1 "PMP4201" H 5500 6350 50  0001 R CNN
F 2 "TO_SOT_Packages_SMD:SOT-363_SC-70-6" H 5100 6500 50  0001 C CNN
F 3 "" H 4900 6400 50  0000 C CNN
	2    4900 6400
	1    0    0    -1  
$EndComp
$Comp
L PMP4201 Q13
U 2 1 5BE41519
P 4500 6400
F 0 "Q13" H 4800 6450 50  0000 R CNN
F 1 "PMP4201" H 5100 6350 50  0001 R CNN
F 2 "TO_SOT_Packages_SMD:SOT-363_SC-70-6" H 4700 6500 50  0001 C CNN
F 3 "" H 4500 6400 50  0000 C CNN
	2    4500 6400
	-1   0    0    -1  
$EndComp
$Comp
L PMP4201 Q14
U 1 1 5BE41897
P 4900 5650
F 0 "Q14" H 5200 5700 50  0000 R CNN
F 1 "PMP4201" H 4850 5800 50  0001 R CNN
F 2 "TO_SOT_Packages_SMD:SOT-363_SC-70-6" H 5100 5750 50  0001 C CNN
F 3 "" H 4900 5650 50  0000 C CNN
	1    4900 5650
	1    0    0    -1  
$EndComp
$Comp
L PMP4201 Q11
U 2 1 5BE4189D
P 3600 5650
F 0 "Q11" H 3900 5550 50  0000 R CNN
F 1 "PMP4201" H 3500 5550 50  0001 R CNN
F 2 "TO_SOT_Packages_SMD:SOT-363_SC-70-6" H 3800 5750 50  0001 C CNN
F 3 "" H 3600 5650 50  0000 C CNN
	2    3600 5650
	1    0    0    -1  
$EndComp
$Comp
L PMP5201 Q15
U 1 1 5BE41CC8
P 5200 5850
F 0 "Q15" H 5500 5900 50  0000 R CNN
F 1 "PMP5201" H 5800 5800 50  0001 R CNN
F 2 "TO_SOT_Packages_SMD:SOT-363_SC-70-6" H 5400 5950 50  0001 C CNN
F 3 "" H 5200 5850 50  0000 C CNN
	1    5200 5850
	1    0    0    1   
$EndComp
$Comp
L PMP5201 Q9
U 1 1 5BE41F21
P 2400 4200
F 0 "Q9" H 2700 4250 50  0000 R CNN
F 1 "PMP5201" H 3000 4150 50  0001 R CNN
F 2 "TO_SOT_Packages_SMD:SOT-363_SC-70-6" H 2600 4300 50  0001 C CNN
F 3 "" H 2400 4200 50  0000 C CNN
	1    2400 4200
	1    0    0    1   
$EndComp
$Comp
L PMP5201 Q7
U 1 1 5BE41F27
P 2000 4200
F 0 "Q7" H 2300 4250 50  0000 R CNN
F 1 "PMP5201" H 2600 4150 50  0001 R CNN
F 2 "TO_SOT_Packages_SMD:SOT-363_SC-70-6" H 2200 4300 50  0001 C CNN
F 3 "" H 2000 4200 50  0000 C CNN
	1    2000 4200
	-1   0    0    1   
$EndComp
$Comp
L PMP5201 Q12
U 2 1 5BE420A1
P 3600 4600
F 0 "Q12" H 3900 4650 50  0000 R CNN
F 1 "PMP5201" H 4200 4550 50  0001 R CNN
F 2 "TO_SOT_Packages_SMD:SOT-363_SC-70-6" H 3800 4700 50  0001 C CNN
F 3 "" H 3600 4600 50  0000 C CNN
	2    3600 4600
	1    0    0    1   
$EndComp
$Comp
L PMP5201 Q7
U 2 1 5BE420A7
P 2000 4600
F 0 "Q7" H 2300 4650 50  0000 R CNN
F 1 "PMP5201" H 2600 4550 50  0001 R CNN
F 2 "TO_SOT_Packages_SMD:SOT-363_SC-70-6" H 2200 4700 50  0001 C CNN
F 3 "" H 2000 4600 50  0000 C CNN
	2    2000 4600
	-1   0    0    1   
$EndComp
$Comp
L PMP5201 Q12
U 1 1 5BE422C9
P 3600 4200
F 0 "Q12" H 3900 4250 50  0000 R CNN
F 1 "PMP5201" H 4200 4150 50  0001 R CNN
F 2 "TO_SOT_Packages_SMD:SOT-363_SC-70-6" H 3800 4300 50  0001 C CNN
F 3 "" H 3600 4200 50  0000 C CNN
	1    3600 4200
	1    0    0    1   
$EndComp
$Comp
L PMP5201 Q9
U 2 1 5BE422CF
P 3200 4200
F 0 "Q9" H 3500 4250 50  0000 R CNN
F 1 "PMP5201" H 3800 4150 50  0001 R CNN
F 2 "TO_SOT_Packages_SMD:SOT-363_SC-70-6" H 3400 4300 50  0001 C CNN
F 3 "" H 3200 4200 50  0000 C CNN
	2    3200 4200
	-1   0    0    1   
$EndComp
$Comp
L PMP5201 Q15
U 2 1 5BE41C50
P 5950 5250
F 0 "Q15" H 6250 5300 50  0000 R CNN
F 1 "PMP5201" H 6550 5200 50  0001 R CNN
F 2 "TO_SOT_Packages_SMD:SOT-363_SC-70-6" H 6150 5350 50  0001 C CNN
F 3 "" H 5950 5250 50  0000 C CNN
	2    5950 5250
	1    0    0    -1  
$EndComp
NoConn ~ 6050 5050
NoConn ~ 6050 5450
NoConn ~ 5750 5250
$Comp
L R R87
U 1 1 5BE42C87
P 4400 5650
F 0 "R87" V 4480 5650 50  0000 C CNN
F 1 "47k" V 4400 5650 50  0000 C CNN
F 2 "Resistors_SMD:R_0805" V 4330 5650 50  0001 C CNN
F 3 "" H 4400 5650 50  0001 C CNN
	1    4400 5650
	1    0    0    -1  
$EndComp
$Comp
L R 10k1
U 1 1 5BE42D35
P 5300 4600
F 0 "10k1" V 5380 4600 50  0000 C CNN
F 1 "R" V 5300 4600 50  0000 C CNN
F 2 "Resistors_SMD:R_0805" V 5230 4600 50  0001 C CNN
F 3 "" H 5300 4600 50  0001 C CNN
	1    5300 4600
	1    0    0    -1  
$EndComp
Connection ~ 4400 6100
Wire Wire Line
	4700 6100 4400 6100
Wire Wire Line
	4700 6400 4700 6100
Wire Wire Line
	4400 5800 4400 6200
Wire Wire Line
	5000 5850 5000 6200
Connection ~ 5300 5100
Wire Wire Line
	5300 5100 5500 5100
Wire Wire Line
	5300 4750 5300 5650
Wire Wire Line
	4400 5500 4400 5150
Connection ~ 5000 3900
Wire Wire Line
	5000 5450 5000 3900
Wire Wire Line
	5300 3900 5300 4450
Connection ~ 3700 3900
Wire Wire Line
	3700 4000 3700 3900
Connection ~ 3100 3900
Wire Wire Line
	3100 4000 3100 3900
Connection ~ 2500 3900
Wire Wire Line
	2500 4000 2500 3900
Connection ~ 1900 3900
Wire Wire Line
	1900 4000 1900 3900
Wire Wire Line
	1400 6700 5300 6700
Wire Wire Line
	1350 3900 5300 3900
Wire Wire Line
	5300 6700 5300 6050
Wire Wire Line
	5000 6600 5000 6700
Connection ~ 5000 6700
Wire Wire Line
	4400 6600 4400 6700
Connection ~ 4400 6700
Wire Wire Line
	3700 6600 3700 6700
Connection ~ 3700 6700
Wire Wire Line
	3100 6600 3100 6700
Connection ~ 3100 6700
Wire Wire Line
	2500 6600 2500 6700
Connection ~ 2500 6700
Wire Wire Line
	1900 6600 1900 6700
Connection ~ 1900 6700
Wire Wire Line
	2500 5300 3100 5300
Wire Wire Line
	1400 6200 2200 6200
Connection ~ 1900 6200
Wire Wire Line
	2500 5300 2500 6200
Wire Wire Line
	2200 6200 2200 6400
Wire Wire Line
	3400 6400 3400 6200
Wire Wire Line
	3400 6200 3700 6200
Wire Wire Line
	3700 6200 3700 5850
Wire Wire Line
	1900 4800 1900 5650
Wire Wire Line
	1900 5650 3400 5650
Wire Wire Line
	3400 5100 3400 5500
Wire Wire Line
	3400 5500 1350 5500
Wire Wire Line
	2200 5100 1350 5100
Wire Wire Line
	3700 4800 3700 5450
Wire Wire Line
	3700 5200 3850 5200
Connection ~ 3700 5200
Wire Wire Line
	3400 4200 3400 4400
Wire Wire Line
	3400 4400 3700 4400
Wire Wire Line
	2500 4400 2500 4900
Wire Wire Line
	3100 4400 3100 4900
Wire Wire Line
	3400 4600 3100 4600
Connection ~ 3100 4600
Wire Wire Line
	2200 4600 2500 4600
Connection ~ 2500 4600
Wire Wire Line
	1900 4400 2200 4400
Wire Wire Line
	2200 4400 2200 4200
Wire Wire Line
	3100 6200 3100 5650
Connection ~ 3100 5650
Text HLabel 1400 6200 0    60   Input ~ 0
1
Text HLabel 1350 5100 0    60   Input ~ 0
2
Text HLabel 1350 5500 0    60   Input ~ 0
3
Text HLabel 4400 5150 0    60   Input ~ 0
4
Text HLabel 1400 6700 0    60   Input ~ 0
5
Text HLabel 3850 5200 2    60   Input ~ 0
6
Text HLabel 4700 5650 0    60   Input ~ 0
7
Text HLabel 5500 5100 2    60   Input ~ 0
8
Text HLabel 1350 3900 0    60   Input ~ 0
9
$EndSCHEMATC
